user.farooque.363429.Z_sherpa.DAOD_TOPQ1.e4716_s2726_r7772_r7676_p2669_2.4.24-1-0_output_tree.root            
user.farooque.363120.Z_sherpa.DAOD_TOPQ1.e4690_s2726_r7725_r7676_p2669_2.4.24-1-0_output_tree.root            
user.farooque.363386.Z_sherpa.DAOD_TOPQ1.e4716_s2726_r7725_r7676_p2669_2.4.24-1-0_output_tree.root            
user.farooque.363474.W_sherpa.DAOD_TOPQ1.e4771_s2726_r7725_r7676_p2669_2.4.24-1-0_output_tree.root            
user.farooque.363442.W_sherpa.DAOD_TOPQ1.e4715_s2726_r7725_r7676_p2669_2.4.24-1-0_output_tree.root            
user.farooque.363456.W_sherpa.DAOD_TOPQ1.e4715_s2726_r7725_r7676_p2669_2.4.24-1-0_output_tree.root            
user.farooque.363109.Z_sherpa.DAOD_TOPQ1.e4792_s2726_r7725_r7676_p2669_2.4.24-1-0_output_tree.root            
user.farooque.363463.W_sherpa.DAOD_TOPQ1.e4715_s2726_r7725_r7676_p2669_2.4.24-1-0_output_tree.root            
user.farooque.363428.Z_sherpa.DAOD_TOPQ1.e4716_s2726_r7772_r7676_p2669_2.4.24-1-0_output_tree.root            
user.farooque.363354.W_sherpa.DAOD_TOPQ1.e4709_s2726_r7725_r7676_p2669_2.4.24-1-0_output_tree.root            
user.farooque.363481.W_sherpa.DAOD_TOPQ1.e4715_s2726_r7725_r7676_p2669_2.4.24-1-0_output_tree.root            
user.farooque.363468.W_sherpa.DAOD_TOPQ1.e4715_s2726_r7725_r7676_p2669_2.4.24-1-0_output_tree.root            
user.farooque.363361.Z_sherpa.DAOD_TOPQ1.e4689_s2726_r7725_r7676_p2669_2.4.24-1-0_output_tree.root            
user.farooque.363452.W_sherpa.DAOD_TOPQ1.e4715_s2726_r7725_r7676_p2669_2.4.24-1-0_output_tree.root            
user.farooque.363461.W_sherpa.DAOD_TOPQ1.e4715_s2726_r7725_r7676_p2669_2.4.24-1-0_output_tree.root            
user.farooque.363378.Z_sherpa.DAOD_TOPQ1.e4772_s2726_r7725_r7676_p2669_2.4.24-1-0_output_tree.root            
user.farooque.363375.Z_sherpa.DAOD_TOPQ1.e4772_s2726_r7725_r7676_p2669_2.4.24-1-0_output_tree.root            
user.farooque.363418.Z_sherpa.DAOD_TOPQ1.e4716_s2726_r7772_r7676_p2669_2.4.24-1-0_output_tree.root            
user.farooque.363338.W_sherpa.DAOD_TOPQ1.e4709_s2726_r7725_r7676_p2669_2.4.24-1-0_output_tree.root            
user.farooque.363431.Z_sherpa.DAOD_TOPQ1.e4716_s2726_r7772_r7676_p2669_2.4.24-1-0_output_tree.root            
user.farooque.363373.Z_sherpa.DAOD_TOPQ1.e4716_s2726_r7725_r7676_p2669_2.4.24-1-0_output_tree.root            
user.farooque.363363.Z_sherpa.DAOD_TOPQ1.e4743_s2726_r7725_r7676_p2669_2.4.24-1-0_output_tree.root            
user.farooque.363450.W_sherpa.DAOD_TOPQ1.e4715_s2726_r7725_r7676_p2669_2.4.24-1-0_output_tree.root            
user.farooque.363333.W_sherpa.DAOD_TOPQ1.e4709_s2726_r7725_r7676_p2669_2.4.24-1-0_output_tree.root            
user.farooque.363119.Z_sherpa.DAOD_TOPQ1.e4666_s2726_r7725_r7676_p2669_2.4.24-1-0_output_tree.root            
user.farooque.363409.Z_sherpa.DAOD_TOPQ1.e4716_s2726_r7725_r7676_p2669_2.4.24-1-0_output_tree.root            
user.farooque.363352.W_sherpa.DAOD_TOPQ1.e4709_s2726_r7725_r7676_p2669_2.4.24-1-0_output_tree.root            
user.farooque.363410.Z_sherpa.DAOD_TOPQ1.e4716_s2726_r7725_r7676_p2669_2.4.24-1-0_output_tree.root            
user.farooque.363434.Z_sherpa.DAOD_TOPQ1.e4716_s2726_r7772_r7676_p2669_2.4.24-1-0_output_tree.root            
user.farooque.363454.W_sherpa.DAOD_TOPQ1.e4715_s2726_r7725_r7676_p2669_2.4.24-1-0_output_tree.root            
user.farooque.363113.Z_sherpa.DAOD_TOPQ1.e4742_s2726_r7725_r7676_p2669_2.4.24-1-0_output_tree.root            
user.farooque.363466.W_sherpa.DAOD_TOPQ1.e4715_s2726_r7725_r7676_p2669_2.4.24-1-0_output_tree.root            
user.farooque.363443.W_sherpa.DAOD_TOPQ1.e4715_s2726_r7725_r7676_p2669_2.4.24-1-0_output_tree.root            
user.farooque.363455.W_sherpa.DAOD_TOPQ1.e4715_s2726_r7725_r7676_p2669_2.4.24-1-0_output_tree.root            
user.farooque.363465.W_sherpa.DAOD_TOPQ1.e4715_s2726_r7725_r7676_p2669_2.4.24-1-0_output_tree.root            
user.farooque.363401.Z_sherpa.DAOD_TOPQ1.e4716_s2726_r7725_r7676_p2669_2.4.24-1-0_output_tree.root            
user.farooque.363344.W_sherpa.DAOD_TOPQ1.e4709_s2726_r7725_r7676_p2669_2.4.24-1-0_output_tree.root            
user.farooque.363453.W_sherpa.DAOD_TOPQ1.e4715_s2726_r7725_r7676_p2669_2.4.24-1-0_output_tree.root            
user.farooque.363424.Z_sherpa.DAOD_TOPQ1.e4716_s2726_r7772_r7676_p2669_2.4.24-1-0_output_tree.root            
user.farooque.363365.Z_sherpa.DAOD_TOPQ1.e4716_s2726_r7725_r7676_p2669_2.4.24-1-0_output_tree.root            
user.farooque.363449.W_sherpa.DAOD_TOPQ1.e4715_s2726_r7725_r7676_p2669_2.4.24-1-0_output_tree.root            
user.farooque.363469.W_sherpa.DAOD_TOPQ1.e4715_s2726_r7725_r7676_p2669_2.4.24-1-0_output_tree.root            
user.farooque.363415.Z_sherpa.DAOD_TOPQ1.e4716_s2726_r7772_r7676_p2669_2.4.24-1-0_output_tree.root            
user.farooque.363115.Z_sherpa.DAOD_TOPQ1.e4792_s2726_r7725_r7676_p2669_2.4.24-1-0_output_tree.root            
user.farooque.363346.W_sherpa.DAOD_TOPQ1.e4709_s2726_r7725_r7676_p2669_2.4.24-1-0_output_tree.root            
user.farooque.363340.W_sherpa.DAOD_TOPQ1.e4709_s2726_r7725_r7676_p2669_2.4.24-1-0_output_tree.root            
user.farooque.363350.W_sherpa.DAOD_TOPQ1.e4709_s2726_r7725_r7676_p2669_2.4.24-1-0_output_tree.root            
user.farooque.363477.W_sherpa.DAOD_TOPQ1.e4715_s2726_r7725_r7676_p2669_2.4.24-1-0_output_tree.root            
user.farooque.363108.Z_sherpa.DAOD_TOPQ1.e4666_s2726_r7725_r7676_p2669_2.4.24-1-0_output_tree.root            
user.farooque.363383.Z_sherpa.DAOD_TOPQ1.e4716_s2726_r7725_r7676_p2669_2.4.24-1-0_output_tree.root            
user.farooque.363122.Z_sherpa.DAOD_TOPQ1.e4792_s2726_r7725_r7676_p2669_2.4.24-1-0_output_tree.root            
user.farooque.363118.Z_sherpa.DAOD_TOPQ1.e4666_s2726_r7725_r7676_p2669_2.4.24-1-0_output_tree.root            
user.farooque.363467.W_sherpa.DAOD_TOPQ1.e4715_s2726_r7725_r7676_p2669_2.4.24-1-0_output_tree.root            
user.farooque.363104.Z_sherpa.DAOD_TOPQ1.e4792_s2726_r7725_r7676_p2669_2.4.24-1-0_output_tree.root            
user.farooque.363384.Z_sherpa.DAOD_TOPQ1.e4716_s2726_r7725_r7676_p2669_2.4.24-1-0_output_tree.root            
user.farooque.363439.W_sherpa.DAOD_TOPQ1.e4715_s2726_r7725_r7676_p2669_2.4.24-1-0_output_tree.root            
user.farooque.363377.Z_sherpa.DAOD_TOPQ1.e4716_s2726_r7725_r7676_p2669_2.4.24-1-0_output_tree.root            
user.farooque.363472.W_sherpa.DAOD_TOPQ1.e4715_s2726_r7725_r7676_p2669_2.4.24-1-0_output_tree.root            
user.farooque.363480.W_sherpa.DAOD_TOPQ1.e4715_s2726_r7725_r7676_p2669_2.4.24-1-0_output_tree.root            
user.farooque.363470.W_sherpa.DAOD_TOPQ1.e4715_s2726_r7725_r7676_p2669_2.4.24-1-0_output_tree.root            
user.farooque.363402.Z_sherpa.DAOD_TOPQ1.e4716_s2726_r7725_r7676_p2669_2.4.24-1-0_output_tree.root            
user.farooque.363106.Z_sherpa.DAOD_TOPQ1.e4666_s2726_r7725_r7676_p2669_2.4.24-1-0_output_tree.root            
user.farooque.363343.W_sherpa.DAOD_TOPQ1.e4709_s2726_r7725_r7676_p2669_2.4.24-1-0_output_tree.root            
user.farooque.363332.W_sherpa.DAOD_TOPQ1.e4709_s2726_r7725_r7676_p2669_2.4.24-1-0_output_tree.root            
user.farooque.363448.W_sherpa.DAOD_TOPQ1.e4715_s2726_r7725_r7676_p2669_2.4.24-1-0_output_tree.root            
user.farooque.363105.Z_sherpa.DAOD_TOPQ1.e4666_s2726_r7725_r7676_p2669_2.4.24-1-0_output_tree.root            
user.farooque.363392.Z_sherpa.DAOD_TOPQ1.e4772_s2726_r7725_r7676_p2669_2.4.24-1-0_output_tree.root            
user.farooque.363459.W_sherpa.DAOD_TOPQ1.e4715_s2726_r7725_r7676_p2669_2.4.24-1-0_output_tree.root            
user.farooque.363348.W_sherpa.DAOD_TOPQ1.e4779_s2726_r7725_r7676_p2669_2.4.24-1-0_output_tree.root            
user.farooque.363374.Z_sherpa.DAOD_TOPQ1.e4716_s2726_r7725_r7676_p2669_2.4.24-1-0_output_tree.root            
user.farooque.363437.W_sherpa.DAOD_TOPQ1.e4715_s2726_r7725_r7676_p2669_2.4.24-1-0_output_tree.root            
user.farooque.363441.W_sherpa.DAOD_TOPQ1.e4771_s2726_r7725_r7676_p2669_2.4.24-1-0_output_tree.root            
user.farooque.363382.Z_sherpa.DAOD_TOPQ1.e4716_s2726_r7725_r7676_p2669_2.4.24-1-0_output_tree.root            
user.farooque.363366.Z_sherpa.DAOD_TOPQ1.e4716_s2726_r7725_r7676_p2669_2.4.24-1-0_output_tree.root            
user.farooque.363411.Z_sherpa.DAOD_TOPQ1.e4772_s2726_r7725_r7676_p2669_2.4.24-1-0_output_tree.root            
user.farooque.363112.Z_sherpa.DAOD_TOPQ1.e4742_s2726_r7725_r7676_p2669_2.4.24-1-0_output_tree.root            
user.farooque.363121.Z_sherpa.DAOD_TOPQ1.e4690_s2726_r7725_r7676_p2669_2.4.24-1-0_output_tree.root            
user.farooque.363451.W_sherpa.DAOD_TOPQ1.e4715_s2726_r7725_r7676_p2669_2.4.24-1-0_output_tree.root            
user.farooque.363445.W_sherpa.DAOD_TOPQ1.e4715_s2726_r7725_r7676_p2669_2.4.24-1-0_output_tree.root            
user.farooque.363341.W_sherpa.DAOD_TOPQ1.e4779_s2726_r7725_r7676_p2669_2.4.24-1-0_output_tree.root            
user.farooque.363370.Z_sherpa.DAOD_TOPQ1.e4716_s2726_r7725_r7676_p2669_2.4.24-1-0_output_tree.root            
user.farooque.363427.Z_sherpa.DAOD_TOPQ1.e4716_s2726_r7772_r7676_p2669_2.4.24-1-0_output_tree.root            
user.farooque.363399.Z_sherpa.DAOD_TOPQ1.e4772_s2726_r7725_r7676_p2669_2.4.24-1-0_output_tree.root            
user.farooque.363420.Z_sherpa.DAOD_TOPQ1.e4772_s2726_r7772_r7676_p2669_2.4.24-1-0_output_tree.root            
user.farooque.363353.W_sherpa.DAOD_TOPQ1.e4709_s2726_r7725_r7676_p2669_2.4.24-1-0_output_tree.root            
user.farooque.363331.W_sherpa.DAOD_TOPQ1.e4709_s2726_r7725_r7676_p2669_2.4.24-1-0_output_tree.root            
user.farooque.363394.Z_sherpa.DAOD_TOPQ1.e4716_s2726_r7725_r7676_p2669_2.4.24-1-0_output_tree.root            
user.farooque.363438.W_sherpa.DAOD_TOPQ1.e4715_s2726_r7725_r7676_p2669_2.4.24-1-0_output_tree.root            
user.farooque.363425.Z_sherpa.DAOD_TOPQ1.e4716_s2726_r7772_r7676_p2669_2.4.24-1-0_output_tree.root            
user.farooque.363387.Z_sherpa.DAOD_TOPQ1.e4716_s2726_r7725_r7676_p2669_2.4.24-1-0_output_tree.root            
user.farooque.363479.W_sherpa.DAOD_TOPQ1.e4715_s2726_r7725_r7676_p2669_2.4.24-1-0_output_tree.root            
user.farooque.363457.W_sherpa.DAOD_TOPQ1.e4715_s2726_r7725_r7676_p2669_2.4.24-1-0_output_tree.root            
user.farooque.363433.Z_sherpa.DAOD_TOPQ1.e4716_s2726_r7772_r7676_p2669_2.4.24-1-0_output_tree.root            
user.farooque.363404.Z_sherpa.DAOD_TOPQ1.e4716_s2726_r7725_r7676_p2669_2.4.24-1-0_output_tree.root            
user.farooque.363483.W_sherpa.DAOD_TOPQ1.e4715_s2726_r7725_r7676_p2669_2.4.24-1-0_output_tree.root            
user.farooque.363345.W_sherpa.DAOD_TOPQ1.e4779_s2726_r7725_r7676_p2669_2.4.24-1-0_output_tree.root            
user.farooque.363342.W_sherpa.DAOD_TOPQ1.e4779_s2726_r7725_r7676_p2669_2.4.24-1-0_output_tree.root            
user.farooque.363478.W_sherpa.DAOD_TOPQ1.e4715_s2726_r7725_r7676_p2669_2.4.24-1-0_output_tree.root            
user.farooque.363347.W_sherpa.DAOD_TOPQ1.e4709_s2726_r7725_r7676_p2669_2.4.24-1-0_output_tree.root            
user.farooque.363381.Z_sherpa.DAOD_TOPQ1.e4716_s2726_r7725_r7676_p2669_2.4.24-1-0_output_tree.root            
user.farooque.363335.W_sherpa.DAOD_TOPQ1.e4709_s2726_r7725_r7676_p2669_2.4.24-1-0_output_tree.root            
user.farooque.363117.Z_sherpa.DAOD_TOPQ1.e4666_s2726_r7725_r7676_p2669_2.4.24-1-0_output_tree.root            
user.farooque.363400.Z_sherpa.DAOD_TOPQ1.e4716_s2726_r7725_r7676_p2669_2.4.24-1-0_output_tree.root            
user.farooque.363390.Z_sherpa.DAOD_TOPQ1.e4716_s2726_r7725_r7676_p2669_2.4.24-1-0_output_tree.root            
user.farooque.363446.W_sherpa.DAOD_TOPQ1.e4715_s2726_r7725_r7676_p2669_2.4.24-1-0_output_tree.root            
user.farooque.363447.W_sherpa.DAOD_TOPQ1.e4715_s2726_r7725_r7676_p2669_2.4.24-1-0_output_tree.root            
user.farooque.363476.W_sherpa.DAOD_TOPQ1.e4715_s2726_r7725_r7676_p2669_2.4.24-1-0_output_tree.root            
user.farooque.363471.W_sherpa.DAOD_TOPQ1.e4715_s2726_r7725_r7676_p2669_2.4.24-1-0_output_tree.root            
user.farooque.363426.Z_sherpa.DAOD_TOPQ1.e4716_s2726_r7772_r7676_p2669_2.4.24-1-0_output_tree.root            
user.farooque.363393.Z_sherpa.DAOD_TOPQ1.e4716_s2726_r7725_r7676_p2669_2.4.24-1-0_output_tree.root            
user.farooque.363110.Z_sherpa.DAOD_TOPQ1.e4792_s2726_r7725_r7676_p2669_2.4.24-1-0_output_tree.root            
user.farooque.363408.Z_sherpa.DAOD_TOPQ1.e4772_s2726_r7725_r7676_p2669_2.4.24-1-0_output_tree.root            
user.farooque.363351.W_sherpa.DAOD_TOPQ1.e4779_s2726_r7725_r7676_p2669_2.4.24-1-0_output_tree.root            
user.farooque.363405.Z_sherpa.DAOD_TOPQ1.e4716_s2726_r7725_r7676_p2669_2.4.24-1-0_output_tree.root            
user.farooque.363412.Z_sherpa.DAOD_TOPQ1.e4716_s2726_r7772_r7676_p2669_2.4.24-1-0_output_tree.root            
user.farooque.363416.Z_sherpa.DAOD_TOPQ1.e4716_s2726_r7772_r7676_p2669_2.4.24-1-0_output_tree.root            
user.farooque.363379.Z_sherpa.DAOD_TOPQ1.e4716_s2726_r7725_r7676_p2669_2.4.24-1-0_output_tree.root            
user.farooque.363406.Z_sherpa.DAOD_TOPQ1.e4716_s2726_r7725_r7676_p2669_2.4.24-1-0_output_tree.root            
user.farooque.363432.Z_sherpa.DAOD_TOPQ1.e4772_s2726_r7772_r7676_p2669_2.4.24-1-0_output_tree.root            
user.farooque.363368.Z_sherpa.DAOD_TOPQ1.e4716_s2726_r7725_r7676_p2669_2.4.24-1-0_output_tree.root            
user.farooque.363403.Z_sherpa.DAOD_TOPQ1.e4716_s2726_r7725_r7676_p2669_2.4.24-1-0_output_tree.root            
user.farooque.363103.Z_sherpa.DAOD_TOPQ1.e4742_s2726_r7725_r7676_p2669_2.4.24-1-0_output_tree.root            
user.farooque.363482.W_sherpa.DAOD_TOPQ1.e4715_s2726_r7772_r7676_p2669_2.4.24-1-0_output_tree.root            
user.farooque.363395.Z_sherpa.DAOD_TOPQ1.e4716_s2726_r7725_r7676_p2669_2.4.24-1-0_output_tree.root            
user.farooque.363444.W_sherpa.DAOD_TOPQ1.e4715_s2726_r7725_r7676_p2669_2.4.24-1-0_output_tree.root            
user.farooque.363367.Z_sherpa.DAOD_TOPQ1.e4716_s2726_r7725_r7676_p2669_2.4.24-1-0_output_tree.root            
user.farooque.363396.Z_sherpa.DAOD_TOPQ1.e4772_s2726_r7725_r7676_p2669_2.4.24-1-0_output_tree.root            
user.farooque.363422.Z_sherpa.DAOD_TOPQ1.e4716_s2726_r7772_r7676_p2669_2.4.24-1-0_output_tree.root            
user.farooque.363371.Z_sherpa.DAOD_TOPQ1.e4716_s2726_r7725_r7676_p2669_2.4.24-1-0_output_tree.root            
user.farooque.363460.W_sherpa.DAOD_TOPQ1.e4715_s2726_r7725_r7676_p2669_2.4.24-1-0_output_tree.root            
user.farooque.363417.Z_sherpa.DAOD_TOPQ1.e4772_s2726_r7772_r7676_p2669_2.4.24-1-0_output_tree.root            
user.farooque.363421.Z_sherpa.DAOD_TOPQ1.e4716_s2726_r7772_r7676_p2669_2.4.24-1-0_output_tree.root            
user.farooque.363397.Z_sherpa.DAOD_TOPQ1.e4716_s2726_r7725_r7676_p2669_2.4.24-1-0_output_tree.root            
user.farooque.363462.W_sherpa.DAOD_TOPQ1.e4715_s2726_r7725_r7676_p2669_2.4.24-1-0_output_tree.root            
user.farooque.363102.Z_sherpa.DAOD_TOPQ1.e4742_s2726_r7725_r7676_p2669_2.4.24-1-0_output_tree.root            
user.farooque.363362.Z_sherpa.DAOD_TOPQ1.e4689_s2726_r7725_r7676_p2669_2.4.24-1-0_output_tree.root            
user.farooque.363334.W_sherpa.DAOD_TOPQ1.e4709_s2726_r7725_r7676_p2669_2.4.24-1-0_output_tree.root            
user.farooque.363337.W_sherpa.DAOD_TOPQ1.e4709_s2726_r7725_r7676_p2669_2.4.24-1-0_output_tree.root            
user.farooque.363423.Z_sherpa.DAOD_TOPQ1.e4716_s2726_r7772_r7676_p2669_2.4.24-1-0_output_tree.root            
user.farooque.363111.Z_sherpa.DAOD_TOPQ1.e4666_s2726_r7725_r7676_p2669_2.4.24-1-0_output_tree.root            
user.farooque.363372.Z_sherpa.DAOD_TOPQ1.e4716_s2726_r7725_r7676_p2669_2.4.24-1-0_output_tree.root            
user.farooque.363116.Z_sherpa.DAOD_TOPQ1.e4742_s2726_r7725_r7676_p2669_2.4.24-1-0_output_tree.root            
user.farooque.363391.Z_sherpa.DAOD_TOPQ1.e4716_s2726_r7725_r7676_p2669_2.4.24-1-0_output_tree.root            
user.farooque.363398.Z_sherpa.DAOD_TOPQ1.e4716_s2726_r7725_r7676_p2669_2.4.24-1-0_output_tree.root            
user.farooque.363376.Z_sherpa.DAOD_TOPQ1.e4716_s2726_r7725_r7676_p2669_2.4.24-1-0_output_tree.root            
user.farooque.363389.Z_sherpa.DAOD_TOPQ1.e4716_s2726_r7725_r7676_p2669_2.4.24-1-0_output_tree.root            
user.farooque.363440.W_sherpa.DAOD_TOPQ1.e4715_s2726_r7725_r7676_p2669_2.4.24-1-0_output_tree.root            
user.farooque.363388.Z_sherpa.DAOD_TOPQ1.e4716_s2726_r7725_r7676_p2669_2.4.24-1-0_output_tree.root            
user.farooque.363107.Z_sherpa.DAOD_TOPQ1.e4742_s2726_r7725_r7676_p2669_2.4.24-1-0_output_tree.root            
user.farooque.363458.W_sherpa.DAOD_TOPQ1.e4715_s2726_r7725_r7676_p2669_2.4.24-1-0_output_tree.root            
user.farooque.363407.Z_sherpa.DAOD_TOPQ1.e4716_s2726_r7725_r7676_p2669_2.4.24-1-0_output_tree.root            
user.farooque.363349.W_sherpa.DAOD_TOPQ1.e4709_s2726_r7725_r7676_p2669_2.4.24-1-0_output_tree.root            
user.farooque.363414.Z_sherpa.DAOD_TOPQ1.e4716_s2726_r7772_r7676_p2669_2.4.24-1-0_output_tree.root            
user.farooque.363473.W_sherpa.DAOD_TOPQ1.e4715_s2726_r7725_r7676_p2669_2.4.24-1-0_output_tree.root            
user.farooque.363435.Z_sherpa.DAOD_TOPQ1.e4772_s2726_r7772_r7676_p2669_2.4.24-1-0_output_tree.root            
user.farooque.363419.Z_sherpa.DAOD_TOPQ1.e4716_s2726_r7772_r7676_p2669_2.4.24-1-0_output_tree.root            
user.farooque.363413.Z_sherpa.DAOD_TOPQ1.e4716_s2726_r7772_r7676_p2669_2.4.24-1-0_output_tree.root            
user.farooque.363364.Z_sherpa.DAOD_TOPQ1.e4716_s2726_r7725_r7676_p2669_2.4.24-1-0_output_tree.root            
user.farooque.363380.Z_sherpa.DAOD_TOPQ1.e4716_s2726_r7725_r7676_p2669_2.4.24-1-0_output_tree.root            
user.farooque.363339.W_sherpa.DAOD_TOPQ1.e4709_s2726_r7725_r7676_p2669_2.4.24-1-0_output_tree.root            
user.farooque.363369.Z_sherpa.DAOD_TOPQ1.e4716_s2726_r7725_r7676_p2669_2.4.24-1-0_output_tree.root            
user.farooque.363464.W_sherpa.DAOD_TOPQ1.e4715_s2726_r7725_r7676_p2669_2.4.24-1-0_output_tree.root            
user.farooque.363336.W_sherpa.DAOD_TOPQ1.e4779_s2726_r7725_r7676_p2669_2.4.24-1-0_output_tree.root            
user.farooque.363436.W_sherpa.DAOD_TOPQ1.e4715_s2726_r7725_r7676_p2669_2.4.24-1-0_output_tree.root            
user.farooque.363430.Z_sherpa.DAOD_TOPQ1.e4716_s2726_r7772_r7676_p2669_2.4.24-1-0_output_tree.root            
user.farooque.363114.Z_sherpa.DAOD_TOPQ1.e4742_s2726_r7725_r7676_p2669_2.4.24-1-0_output_tree.root            
user.farooque.363475.W_sherpa.DAOD_TOPQ1.e4715_s2726_r7725_r7676_p2669_2.4.24-1-0_output_tree.root            
user.farooque.363385.Z_sherpa.DAOD_TOPQ1.e4716_s2726_r7725_r7676_p2669_2.4.24-1-0_output_tree.root            
user.farooque.364158.W_sherpa_221.DAOD_SUSY10.e5340_s2726_r7772_r7676_p2823_tag2.4.24-1-0_output_tree.root    
user.farooque.363429.Z_sherpa_220.DAOD_SUSY10.e4716_s2726_r7772_r7676_p2666_tag2.4.24-1-0_output_tree.root    
user.farooque.364122.Z_sherpa_221.DAOD_SUSY10.e5299_s2726_r7772_r7676_p2823_tag2.4.24-1-0_output_tree.root    
user.farooque.410017.singletop_syst.DAOD_SUSY10.e3978_a766_a818_r7676_p2666_tag2.4.24-1-0_output_tree.root    
user.farooque.407020.singletop.DAOD_SUSY10.e4024_s2608_r7725_r7676_p2719_tag2.4.24-1-0_output_tree.root       
user.farooque.361091.diboson.DAOD_SUSY10.e4607_s2726_r7725_r7676_p2666_tag2.4.24-1-0_output_tree.root         
user.farooque.363415.Z_sherpa_220.DAOD_SUSY10.e4716_s2726_r7772_r7676_p2666_tag2.4.24-1-0_output_tree.root    
user.farooque.364150.Z_sherpa_221.DAOD_SUSY10.e5308_s2726_r7772_r7676_p2823_tag2.4.24-1-0_output_tree.root    
user.farooque.410100.singletop_syst.DAOD_SUSY10.e4403_a766_a818_r7676_p2666_tag2.4.24-1-0_output_tree.root    
user.farooque.410108.singletop_syst.DAOD_SUSY10.e4403_a766_a818_r7676_p2666_tag2.4.24-1-0_output_tree.root    
user.farooque.364119.Z_sherpa_221.DAOD_SUSY10.e5299_s2726_r7772_r7676_p2823_tag2.4.24-1-0_output_tree.root    
user.farooque.363394.Z_sherpa_220.DAOD_SUSY10.e4716_s2726_r7725_r7676_p2666_tag2.4.24-1-0_output_tree.root    
user.farooque.363115.Z_sherpa_220.DAOD_SUSY10.e4792_s2726_r7725_r7676_p2666_tag2.4.24-1-0_output_tree.root    
user.farooque.363386.Z_sherpa_220.DAOD_SUSY10.e4716_s2726_r7725_r7676_p2666_tag2.4.24-1-0_output_tree.root    
user.farooque.363347.W_sherpa_220.DAOD_SUSY10.e4709_s2726_r7725_r7676_p2666_tag2.4.24-1-0_output_tree.root    
user.farooque.363461.W_sherpa_220.DAOD_SUSY10.e4715_s2726_r7725_r7676_p2666_tag2.4.24-1-0_output_tree.root    
user.farooque.363361.Z_sherpa_220.DAOD_SUSY10.e4689_s2726_r7725_r7676_p2666_tag2.4.24-1-0_output_tree.root    
user.farooque.407019.singletop.DAOD_SUSY10.e4024_s2608_r7725_r7676_p2719_tag2.4.24-1-0_output_tree.root       
user.farooque.364155.Z_sherpa_221.DAOD_SUSY10.e5308_s2726_r7772_r7676_p2823_tag2.4.24-1-0_output_tree.root    
user.farooque.361096.diboson.DAOD_SUSY10.e4607_s2726_r7725_r7676_p2666_tag2.4.24-1-0_output_tree.root         
user.farooque.410018.singletop_syst.DAOD_SUSY10.e3978_a766_a818_r7676_p2666_tag2.4.24-1-0_output_tree.root    
user.farooque.363478.W_sherpa_220.DAOD_SUSY10.e4715_s2726_r7725_r7676_p2666_tag2.4.24-1-0_output_tree.root    
user.farooque.364170.W_sherpa_221.DAOD_SUSY10.e5340_s2726_r7772_r7676_p2823_tag2.4.24-1-0_output_tree.root    
user.farooque.363455.W_sherpa_220.DAOD_SUSY10.e4715_s2726_r7725_r7676_p2666_tag2.4.24-1-0_output_tree.root    
user.farooque.363382.Z_sherpa_220.DAOD_SUSY10.e4716_s2726_r7725_r7676_p2666_tag2.4.24-1-0_output_tree.root    
user.farooque.363111.Z_sherpa_220.DAOD_SUSY10.e4666_s2726_r7725_r7676_p2666_tag2.4.24-1-0_output_tree.root    
user.farooque.364162.W_sherpa_221.DAOD_SUSY10.e5340_s2726_r7772_r7676_p2823_tag2.4.24-1-0_output_tree.root    
user.farooque.363388.Z_sherpa_220.DAOD_SUSY10.e4716_s2726_r7725_r7676_p2666_tag2.4.24-1-0_output_tree.root    
user.farooque.363113.Z_sherpa_220.DAOD_SUSY10.e4742_s2726_r7725_r7676_p2666_tag2.4.24-1-0_output_tree.root    
user.farooque.363344.W_sherpa_220.DAOD_SUSY10.e4709_s2726_r7725_r7676_p2666_tag2.4.24-1-0_output_tree.root    
user.farooque.363470.W_sherpa_220.DAOD_SUSY10.e4715_s2726_r7725_r7676_p2666_tag2.4.24-1-0_output_tree.root    
user.farooque.364163.W_sherpa_221.DAOD_SUSY10.e5340_s2726_r7772_r7676_p2823_tag2.4.24-1-0_output_tree.root    
user.farooque.363444.W_sherpa_220.DAOD_SUSY10.e4715_s2726_r7725_r7676_p2666_tag2.4.24-1-0_output_tree.root    
user.farooque.410074.topEW.DAOD_SUSY10.e4631_s2726_r7725_r7676_p2666_tag2.4.24-1-0_output_tree.root           
user.farooque.363440.W_sherpa_220.DAOD_SUSY10.e4715_s2726_r7725_r7676_p2666_tag2.4.24-1-0_output_tree.root    
user.farooque.363426.Z_sherpa_220.DAOD_SUSY10.e4716_s2726_r7772_r7676_p2666_tag2.4.24-1-0_output_tree.root    
user.farooque.364107.Z_sherpa_221.DAOD_SUSY10.e5271_s2726_r7772_r7676_p2823_tag2.4.24-1-0_output_tree.root    
user.farooque.364125.Z_sherpa_221.DAOD_SUSY10.e5299_s2726_r7772_r7676_p2823_tag2.4.24-1-0_output_tree.root    
user.farooque.363456.W_sherpa_220.DAOD_SUSY10.e4715_s2726_r7725_r7676_p2666_tag2.4.24-1-0_output_tree.root    
user.farooque.364156.W_sherpa_221.DAOD_SUSY10.e5340_s2726_r7772_r7676_p2823_tag2.4.24-1-0_output_tree.root    
user.farooque.363472.W_sherpa_220.DAOD_SUSY10.e4715_s2726_r7725_r7676_p2666_tag2.4.24-1-0_output_tree.root    
user.farooque.364101.Z_sherpa_221.DAOD_SUSY10.e5271_s2726_r7772_r7676_p2823_tag2.4.24-1-0_output_tree.root    
user.farooque.363435.Z_sherpa_220.DAOD_SUSY10.e4772_s2726_r7772_r7676_p2666_tag2.4.24-1-0_output_tree.root    
user.farooque.364134.Z_sherpa_221.DAOD_SUSY10.e5307_s2726_r7772_r7676_p2823_tag2.4.24-1-0_output_tree.root    
user.farooque.364136.Z_sherpa_221.DAOD_SUSY10.e5307_s2726_r7772_r7676_p2823_tag2.4.24-1-0_output_tree.root    
user.farooque.364153.Z_sherpa_221.DAOD_SUSY10.e5308_s2726_r7772_r7676_p2823_tag2.4.24-1-0_output_tree.root    
user.farooque.364103.Z_sherpa_221.DAOD_SUSY10.e5271_s2726_r7772_r7676_p2823_tag2.4.24-1-0_output_tree.root    
user.farooque.364110.Z_sherpa_221.DAOD_SUSY10.e5271_s2726_r7772_r7676_p2823_tag2.4.24-1-0_output_tree.root    
user.farooque.363366.Z_sherpa_220.DAOD_SUSY10.e4716_s2726_r7725_r7676_p2666_tag2.4.24-1-0_output_tree.root    
user.farooque.363353.W_sherpa_220.DAOD_SUSY10.e4709_s2726_r7725_r7676_p2666_tag2.4.24-1-0_output_tree.root    
user.farooque.363378.Z_sherpa_220.DAOD_SUSY10.e4772_s2726_r7725_r7676_p2666_tag2.4.24-1-0_output_tree.root    
user.farooque.363120.Z_sherpa_220.DAOD_SUSY10.e4690_s2726_r7725_r7676_p2666_tag2.4.24-1-0_output_tree.root    
user.farooque.364172.W_sherpa_221.DAOD_SUSY10.e5340_s2726_r7772_r7676_p2823_tag2.4.24-1-0_output_tree.root    
user.farooque.363372.Z_sherpa_220.DAOD_SUSY10.e4716_s2726_r7725_r7676_p2666_tag2.4.24-1-0_output_tree.root    
user.farooque.341177.topEW.DAOD_SUSY10.e4277_s2608_s2183_a821_r7676_p2666_tag2.4.24-1-0_output_tree.root      
user.farooque.364179.W_sherpa_221.DAOD_SUSY10.e5340_s2726_r7772_r7676_p2823_tag2.4.24-1-0_output_tree.root    
user.farooque.363409.Z_sherpa_220.DAOD_SUSY10.e4716_s2726_r7725_r7676_p2666_tag2.4.24-1-0_output_tree.root    
user.farooque.363383.Z_sherpa_220.DAOD_SUSY10.e4716_s2726_r7725_r7676_p2666_tag2.4.24-1-0_output_tree.root    
user.farooque.364168.W_sherpa_221.DAOD_SUSY10.e5340_s2726_r7772_r7676_p2823_tag2.4.24-1-0_output_tree.root    
user.farooque.364113.Z_sherpa_221.DAOD_SUSY10.e5271_s2726_r7772_r7676_p2823_tag2.4.24-1-0_output_tree.root    
user.farooque.410073.topEW.DAOD_SUSY10.e4631_s2726_r7725_r7676_p2666_tag2.4.24-1-0_output_tree.root           
user.farooque.363411.Z_sherpa_220.DAOD_SUSY10.e4772_s2726_r7725_r7676_p2666_tag2.4.24-1-0_output_tree.root    
user.farooque.363452.W_sherpa_220.DAOD_SUSY10.e4715_s2726_r7725_r7676_p2666_tag2.4.24-1-0_output_tree.root    
user.farooque.364192.W_sherpa_221.DAOD_SUSY10.e5340_s2726_r7772_r7676_p2823_tag2.4.24-1-0_output_tree.root    
user.farooque.363441.W_sherpa_220.DAOD_SUSY10.e4771_s2726_r7725_r7676_p2666_tag2.4.24-1-0_output_tree.root    
user.farooque.363349.W_sherpa_220.DAOD_SUSY10.e4709_s2726_r7725_r7676_p2666_tag2.4.24-1-0_output_tree.root    
user.farooque.364182.W_sherpa_221.DAOD_SUSY10.e5340_s2726_r7772_r7676_p2823_tag2.4.24-1-0_output_tree.root    
user.farooque.363422.Z_sherpa_220.DAOD_SUSY10.e4716_s2726_r7772_r7676_p2666_tag2.4.24-1-0_output_tree.root    
user.farooque.363345.W_sherpa_220.DAOD_SUSY10.e4779_s2726_r7725_r7676_p2666_tag2.4.24-1-0_output_tree.root    
user.farooque.410025.singletop.DAOD_SUSY10.e3998_s2608_s2183_r7725_r7676_p2719_tag2.4.24-1-0_output_tree.root 
user.farooque.363350.W_sherpa_220.DAOD_SUSY10.e4709_s2726_r7725_r7676_p2666_tag2.4.24-1-0_output_tree.root    
user.farooque.363413.Z_sherpa_220.DAOD_SUSY10.e4716_s2726_r7772_r7676_p2666_tag2.4.24-1-0_output_tree.root    
user.farooque.364111.Z_sherpa_221.DAOD_SUSY10.e5271_s2726_r7772_r7676_p2823_tag2.4.24-1-0_output_tree.root    
user.farooque.410112.topEW.DAOD_SUSY10.e4632_s2726_r7725_r7676_p2666_tag2.4.24-1-0_output_tree.root           
user.farooque.364106.Z_sherpa_221.DAOD_SUSY10.e5271_s2726_r7772_r7676_p2823_tag2.4.24-1-0_output_tree.root    
user.farooque.363108.Z_sherpa_220.DAOD_SUSY10.e4666_s2726_r7725_r7676_p2666_tag2.4.24-1-0_output_tree.root    
user.farooque.363403.Z_sherpa_220.DAOD_SUSY10.e4716_s2726_r7725_r7676_p2666_tag2.4.24-1-0_output_tree.root    
user.farooque.364104.Z_sherpa_221.DAOD_SUSY10.e5271_s2726_r7772_r7676_p2823_tag2.4.24-1-0_output_tree.root    
user.farooque.364185.W_sherpa_221.DAOD_SUSY10.e5340_s2726_r7772_r7676_p2823_tag2.4.24-1-0_output_tree.root    
user.farooque.363380.Z_sherpa_220.DAOD_SUSY10.e4716_s2726_r7725_r7676_p2666_tag2.4.24-1-0_output_tree.root    
user.farooque.364142.Z_sherpa_221.DAOD_SUSY10.e5308_s2726_r7772_r7676_p2823_tag2.4.24-1-0_output_tree.root    
user.farooque.364147.Z_sherpa_221.DAOD_SUSY10.e5308_s2726_r7772_r7676_p2823_tag2.4.24-1-0_output_tree.root    
user.farooque.363427.Z_sherpa_220.DAOD_SUSY10.e4716_s2726_r7772_r7676_p2666_tag2.4.24-1-0_output_tree.root    
user.farooque.364196.W_sherpa_221.DAOD_SUSY10.e5340_s2726_r7772_r7676_p2823_tag2.4.24-1-0_output_tree.root    
user.farooque.364145.Z_sherpa_221.DAOD_SUSY10.e5308_s2726_r7772_r7676_p2823_tag2.4.24-1-0_output_tree.root    
user.farooque.363354.W_sherpa_220.DAOD_SUSY10.e4709_s2726_r7725_r7676_p2666_tag2.4.24-1-0_output_tree.root    
user.farooque.363457.W_sherpa_220.DAOD_SUSY10.e4715_s2726_r7725_r7676_p2666_tag2.4.24-1-0_output_tree.root    
user.farooque.363462.W_sherpa_220.DAOD_SUSY10.e4715_s2726_r7725_r7676_p2666_tag2.4.24-1-0_output_tree.root    
user.farooque.364131.Z_sherpa_221.DAOD_SUSY10.e5307_s2726_r7772_r7676_p2823_tag2.4.24-1-0_output_tree.root    
user.farooque.407018.singletop.DAOD_SUSY10.e4024_s2608_r7725_r7676_p2719_tag2.4.24-1-0_output_tree.root       
user.farooque.364108.Z_sherpa_221.DAOD_SUSY10.e5271_s2726_r7772_r7676_p2823_tag2.4.24-1-0_output_tree.root    
user.farooque.364169.W_sherpa_221.DAOD_SUSY10.e5340_s2726_r7772_r7676_p2823_tag2.4.24-1-0_output_tree.root    
user.farooque.363480.W_sherpa_220.DAOD_SUSY10.e4715_s2726_r7725_r7676_p2666_tag2.4.24-1-0_output_tree.root    
user.farooque.363110.Z_sherpa_220.DAOD_SUSY10.e4792_s2726_r7725_r7676_p2666_tag2.4.24-1-0_output_tree.root    
user.farooque.364180.W_sherpa_221.DAOD_SUSY10.e5340_s2726_r7772_r7676_p2823_tag2.4.24-1-0_output_tree.root    
user.farooque.363333.W_sherpa_220.DAOD_SUSY10.e4709_s2726_r7725_r7676_p2666_tag2.4.24-1-0_output_tree.root    
user.farooque.364194.W_sherpa_221.DAOD_SUSY10.e5340_s2726_r7772_r7676_p2823_tag2.4.24-1-0_output_tree.root    
user.farooque.364151.Z_sherpa_221.DAOD_SUSY10.e5308_s2726_r7772_r7676_p2823_tag2.4.24-1-0_output_tree.root    
user.farooque.363442.W_sherpa_220.DAOD_SUSY10.e4715_s2726_r7725_r7676_p2666_tag2.4.24-1-0_output_tree.root    
user.farooque.364130.Z_sherpa_221.DAOD_SUSY10.e5307_s2726_r7772_r7676_p2823_tag2.4.24-1-0_output_tree.root    
user.farooque.363405.Z_sherpa_220.DAOD_SUSY10.e4716_s2726_r7725_r7676_p2666_tag2.4.24-1-0_output_tree.root    
user.farooque.363379.Z_sherpa_220.DAOD_SUSY10.e4716_s2726_r7725_r7676_p2666_tag2.4.24-1-0_output_tree.root    
user.farooque.364177.W_sherpa_221.DAOD_SUSY10.e5340_s2726_r7772_r7676_p2823_tag2.4.24-1-0_output_tree.root    
user.farooque.363338.W_sherpa_220.DAOD_SUSY10.e4709_s2726_r7725_r7676_p2666_tag2.4.24-1-0_output_tree.root    
user.farooque.363376.Z_sherpa_220.DAOD_SUSY10.e4716_s2726_r7725_r7676_p2666_tag2.4.24-1-0_output_tree.root    
user.farooque.363396.Z_sherpa_220.DAOD_SUSY10.e4772_s2726_r7725_r7676_p2666_tag2.4.24-1-0_output_tree.root    
user.farooque.361094.diboson.DAOD_SUSY10.e4607_s2726_r7725_r7676_p2666_tag2.4.24-1-0_output_tree.root         
user.farooque.363371.Z_sherpa_220.DAOD_SUSY10.e4716_s2726_r7725_r7676_p2666_tag2.4.24-1-0_output_tree.root    
user.farooque.410116.topEW.DAOD_SUSY10.e4632_s2726_r7725_r7676_p2666_tag2.4.24-1-0_output_tree.root           
user.farooque.364184.W_sherpa_221.DAOD_SUSY10.e5340_s2726_r7772_r7676_p2823_tag2.4.24-1-0_output_tree.root    
user.farooque.364115.Z_sherpa_221.DAOD_SUSY10.e5299_s2726_r7772_r7676_p2823_tag2.4.24-1-0_output_tree.root    
user.farooque.364152.Z_sherpa_221.DAOD_SUSY10.e5308_s2726_r7772_r7676_p2823_tag2.4.24-1-0_output_tree.root    
user.farooque.364121.Z_sherpa_221.DAOD_SUSY10.e5299_s2726_r7772_r7676_p2823_tag2.4.24-1-0_output_tree.root    
user.farooque.361095.diboson.DAOD_SUSY10.e4607_s2726_r7772_r7676_p2666_tag2.4.24-1-0_output_tree.root         
user.farooque.410019.singletop_syst.DAOD_SUSY10.e3978_a766_a818_r7676_p2666_tag2.4.24-1-0_output_tree.root    
user.farooque.410110.singletop_syst.DAOD_SUSY10.e4403_a766_a818_r7676_p2666_tag2.4.24-1-0_output_tree.root    
user.farooque.363483.W_sherpa_220.DAOD_SUSY10.e4715_s2726_r7725_r7676_p2666_tag2.4.24-1-0_output_tree.root    
user.farooque.363119.Z_sherpa_220.DAOD_SUSY10.e4666_s2726_r7725_r7676_p2666_tag2.4.24-1-0_output_tree.root    
user.farooque.364133.Z_sherpa_221.DAOD_SUSY10.e5307_s2726_r7772_r7676_p2823_tag2.4.24-1-0_output_tree.root    
user.farooque.363363.Z_sherpa_220.DAOD_SUSY10.e4743_s2726_r7725_r7676_p2666_tag2.4.24-1-0_output_tree.root    
user.farooque.363103.Z_sherpa_220.DAOD_SUSY10.e4742_s2726_r7725_r7676_p2666_tag2.4.24-1-0_output_tree.root    
user.farooque.363340.W_sherpa_220.DAOD_SUSY10.e4709_s2726_r7725_r7676_p2666_tag2.4.24-1-0_output_tree.root    
user.farooque.407021.singletop.DAOD_SUSY10.e4024_s2608_r7725_r7676_p2719_tag2.4.24-1-0_output_tree.root       
user.farooque.363395.Z_sherpa_220.DAOD_SUSY10.e4716_s2726_r7725_r7676_p2666_tag2.4.24-1-0_output_tree.root    
user.farooque.363385.Z_sherpa_220.DAOD_SUSY10.e4716_s2726_r7725_r7676_p2666_tag2.4.24-1-0_output_tree.root    
user.farooque.364190.W_sherpa_221.DAOD_SUSY10.e5340_s2726_r7772_r7676_p2823_tag2.4.24-1-0_output_tree.root    
user.farooque.363116.Z_sherpa_220.DAOD_SUSY10.e4742_s2726_r7725_r7676_p2666_tag2.4.24-1-0_output_tree.root    
user.farooque.364129.Z_sherpa_221.DAOD_SUSY10.e5307_s2726_r7772_r7676_p2823_tag2.4.24-1-0_output_tree.root    
user.farooque.363122.Z_sherpa_220.DAOD_SUSY10.e4792_s2726_r7725_r7676_p2666_tag2.4.24-1-0_output_tree.root    
user.farooque.361097.diboson.DAOD_SUSY10.e4607_s2726_r7772_r7676_p2666_tag2.4.24-1-0_output_tree.root         
user.farooque.363467.W_sherpa_220.DAOD_SUSY10.e4715_s2726_r7725_r7676_p2666_tag2.4.24-1-0_output_tree.root    
user.farooque.363389.Z_sherpa_220.DAOD_SUSY10.e4716_s2726_r7725_r7676_p2666_tag2.4.24-1-0_output_tree.root    
user.farooque.410068.topEW.DAOD_SUSY10.e4111_s2608_s2183_r7725_r7676_p2666_tag2.4.24-1-0_output_tree.root     
user.farooque.363331.W_sherpa_220.DAOD_SUSY10.e4709_s2726_r7725_r7676_p2666_tag2.4.24-1-0_output_tree.root    
user.farooque.363407.Z_sherpa_220.DAOD_SUSY10.e4716_s2726_r7725_r7676_p2666_tag2.4.24-1-0_output_tree.root    
user.farooque.364141.Z_sherpa_221.DAOD_SUSY10.e5307_s2726_r7772_r7676_p2823_tag2.4.24-1-0_output_tree.root    
user.farooque.364181.W_sherpa_221.DAOD_SUSY10.e5340_s2726_r7772_r7676_p2823_tag2.4.24-1-0_output_tree.root    
user.farooque.363367.Z_sherpa_220.DAOD_SUSY10.e4716_s2726_r7725_r7676_p2666_tag2.4.24-1-0_output_tree.root    
user.farooque.363381.Z_sherpa_220.DAOD_SUSY10.e4716_s2726_r7725_r7676_p2666_tag2.4.24-1-0_output_tree.root    
user.farooque.363449.W_sherpa_220.DAOD_SUSY10.e4715_s2726_r7725_r7676_p2666_tag2.4.24-1-0_output_tree.root    
user.farooque.363416.Z_sherpa_220.DAOD_SUSY10.e4716_s2726_r7772_r7676_p2666_tag2.4.24-1-0_output_tree.root    
user.farooque.364120.Z_sherpa_221.DAOD_SUSY10.e5299_s2726_r7772_r7676_p2823_tag2.4.24-1-0_output_tree.root    
user.farooque.363482.W_sherpa_220.DAOD_SUSY10.e4715_s2726_r7772_r767_p2666_tag2.4.24-1-0_output_tree.root     
user.farooque.364193.W_sherpa_221.DAOD_SUSY10.e5340_s2726_r7772_r7676_p2823_tag2.4.24-1-0_output_tree.root    
user.farooque.364105.Z_sherpa_221.DAOD_SUSY10.e5271_s2726_r7772_r7676_p2823_tag2.4.24-1-0_output_tree.root    
user.farooque.364116.Z_sherpa_221.DAOD_SUSY10.e5299_s2726_r7772_r7676_p2823_tag2.4.24-1-0_output_tree.root    
user.farooque.410107.singletop_syst.DAOD_SUSY10.e4403_a766_a818_r7676_p2666_tag2.4.24-1-0_output_tree.root    
user.farooque.410075.topEW.DAOD_SUSY10.e4631_s2726_r7725_r7676_p2666_tag2.4.24-1-0_output_tree.root           
user.farooque.363412.Z_sherpa_220.DAOD_SUSY10.e4716_s2726_r7772_r7676_p2666_tag2.4.24-1-0_output_tree.root    
user.farooque.363428.Z_sherpa_220.DAOD_SUSY10.e4716_s2726_r7772_r7676_p2666_tag2.4.24-1-0_output_tree.root    
user.farooque.363392.Z_sherpa_220.DAOD_SUSY10.e4772_s2726_r7725_r7676_p2666_tag2.4.24-1-0_output_tree.root    
user.farooque.364118.Z_sherpa_221.DAOD_SUSY10.e5299_s2726_r7772_r7676_p2823_tag2.4.24-1-0_output_tree.root    
user.farooque.410099.singletop_syst.DAOD_SUSY10.e4403_a766_a818_r7676_p2666_tag2.4.24-1-0_output_tree.root    
user.farooque.363443.W_sherpa_220.DAOD_SUSY10.e4715_s2726_r7725_r7676_p2666_tag2.4.24-1-0_output_tree.root    
user.farooque.363450.W_sherpa_220.DAOD_SUSY10.e4715_s2726_r7725_r7676_p2666_tag2.4.24-1-0_output_tree.root    
user.farooque.364137.Z_sherpa_221.DAOD_SUSY10.e5307_s2726_r7772_r7676_p2823_tag2.4.24-1-0_output_tree.root    
user.farooque.363408.Z_sherpa_220.DAOD_SUSY10.e4772_s2726_r7725_r7676_p2666_tag2.4.24-1-0_output_tree.root    
user.farooque.363463.W_sherpa_220.DAOD_SUSY10.e4715_s2726_r7725_r7676_p2666_tag2.4.24-1-0_output_tree.root    
user.farooque.361093.diboson.DAOD_SUSY10.e4607_s2726_r7725_r7676_p2666_tag2.4.24-1-0_output_tree.root         
user.farooque.364102.Z_sherpa_221.DAOD_SUSY10.e5271_s2726_r7772_r7676_p2823_tag2.4.24-1-0_output_tree.root    
user.farooque.363460.W_sherpa_220.DAOD_SUSY10.e4715_s2726_r7725_r7676_p2666_tag2.4.24-1-0_output_tree.root    
user.farooque.363334.W_sherpa_220.DAOD_SUSY10.e4709_s2726_r7725_r7676_p2666_tag2.4.24-1-0_output_tree.root    
user.farooque.363477.W_sherpa_220.DAOD_SUSY10.e4715_s2726_r7725_r7676_p2666_tag2.4.24-1-0_output_tree.root    
user.farooque.410111.topEW.DAOD_SUSY10.e4632_s2726_r7725_r7676_p2666_tag2.4.24-1-0_output_tree.root           
user.farooque.363117.Z_sherpa_220.DAOD_SUSY10.e4666_s2726_r7725_r7676_p2666_tag2.4.24-1-0_output_tree.root    
user.farooque.363114.Z_sherpa_220.DAOD_SUSY10.e4742_s2726_r7725_r7676_p2666_tag2.4.24-1-0_output_tree.root    
user.farooque.363423.Z_sherpa_220.DAOD_SUSY10.e4716_s2726_r7772_r7676_p2666_tag2.4.24-1-0_output_tree.root    
user.farooque.363398.Z_sherpa_220.DAOD_SUSY10.e4716_s2726_r7725_r7676_p2666_tag2.4.24-1-0_output_tree.root    
user.farooque.341271.topEW.DAOD_SUSY10.e4277_s2608_s2183_a821_r7676_p2666_tag2.4.24-1-0_output_tree.root      
user.farooque.363352.W_sherpa_220.DAOD_SUSY10.e4709_s2726_r7725_r7676_p2666_tag2.4.24-1-0_output_tree.root    
user.farooque.363454.W_sherpa_220.DAOD_SUSY10.e4715_s2726_r7725_r7676_p2666_tag2.4.24-1-0_output_tree.root    
user.farooque.363390.Z_sherpa_220.DAOD_SUSY10.e4716_s2726_r7725_r7676_p2666_tag2.4.24-1-0_output_tree.root    
user.farooque.364112.Z_sherpa_221.DAOD_SUSY10.e5271_s2726_r7772_r7676_p2823_tag2.4.24-1-0_output_tree.root    
user.farooque.363458.W_sherpa_220.DAOD_SUSY10.e4715_s2726_r7725_r7676_p2666_tag2.4.24-1-0_output_tree.root    
user.farooque.363402.Z_sherpa_220.DAOD_SUSY10.e4716_s2726_r7725_r7676_p2666_tag2.4.24-1-0_output_tree.root    
user.farooque.364160.W_sherpa_221.DAOD_SUSY10.e5340_s2726_r7772_r7676_p2823_tag2.4.24-1-0_output_tree.root    
user.farooque.363451.W_sherpa_220.DAOD_SUSY10.e4715_s2726_r7725_r7676_p2666_tag2.4.24-1-0_output_tree.root    
user.farooque.363445.W_sherpa_220.DAOD_SUSY10.e4715_s2726_r7725_r7676_p2666_tag2.4.24-1-0_output_tree.root    
user.farooque.363365.Z_sherpa_220.DAOD_SUSY10.e4716_s2726_r7725_r7676_p2666_tag2.4.24-1-0_output_tree.root    
user.farooque.363418.Z_sherpa_220.DAOD_SUSY10.e4716_s2726_r7772_r7676_p2666_tag2.4.24-1-0_output_tree.root    
user.farooque.363104.Z_sherpa_220.DAOD_SUSY10.e4792_s2726_r7725_r7676_p2666_tag2.4.24-1-0_output_tree.root    
user.farooque.363419.Z_sherpa_220.DAOD_SUSY10.e4716_s2726_r7772_r7676_p2666_tag2.4.24-1-0_output_tree.root    
user.farooque.341270.topEW.DAOD_SUSY10.e4277_s2608_s2183_a821_r7676_p2666_tag2.4.24-1-0_output_tree.root      
user.farooque.363465.W_sherpa_220.DAOD_SUSY10.e4715_s2726_r7725_r7676_p2666_tag2.4.24-1-0_output_tree.root    
user.farooque.363401.Z_sherpa_220.DAOD_SUSY10.e4716_s2726_r7725_r7676_p2666_tag2.4.24-1-0_output_tree.root    
user.farooque.363393.Z_sherpa_220.DAOD_SUSY10.e4716_s2726_r7725_r7676_p2666_tag2.4.24-1-0_output_tree.root    
user.farooque.410014.singletop.DAOD_SUSY10.e3753_s2608_s2183_r7725_r7676_p2719_tag2.4.24-1-0_output_tree.root 
user.farooque.364165.W_sherpa_221.DAOD_SUSY10.e5340_s2726_r7772_r7676_p2823_tag2.4.24-1-0_output_tree.root    
user.farooque.363406.Z_sherpa_220.DAOD_SUSY10.e4716_s2726_r7725_r7676_p2666_tag2.4.24-1-0_output_tree.root    
user.farooque.363446.W_sherpa_220.DAOD_SUSY10.e4715_s2726_r7725_r7676_p2666_tag2.4.24-1-0_output_tree.root    
user.farooque.364174.W_sherpa_221.DAOD_SUSY10.e5340_s2726_r7772_r7676_p2823_tag2.4.24-1-0_output_tree.root    
user.farooque.363421.Z_sherpa_220.DAOD_SUSY10.e4716_s2726_r7772_r7676_p2666_tag2.4.24-1-0_output_tree.root    
user.farooque.363364.Z_sherpa_220.DAOD_SUSY10.e4716_s2726_r7725_r7676_p2666_tag2.4.24-1-0_output_tree.root    
user.farooque.410067.topEW.DAOD_SUSY10.e4111_s2608_s2183_r7725_r7676_p2666_tag2.4.24-1-0_output_tree.root     
user.farooque.364183.W_sherpa_221.DAOD_SUSY10.e5340_s2726_r7772_r7676_p2823_tag2.4.24-1-0_output_tree.root    
user.farooque.363377.Z_sherpa_220.DAOD_SUSY10.e4716_s2726_r7725_r7676_p2666_tag2.4.24-1-0_output_tree.root    
user.farooque.364100.Z_sherpa_221.DAOD_SUSY10.e5271_s2726_r7772_r7676_p2823_tag2.4.24-1-0_output_tree.root    
user.farooque.363475.W_sherpa_220.DAOD_SUSY10.e4715_s2726_r7725_r7676_p2666_tag2.4.24-1-0_output_tree.root    
user.farooque.363417.Z_sherpa_220.DAOD_SUSY10.e4772_s2726_r7772_r7676_p2666_tag2.4.24-1-0_output_tree.root    
user.farooque.364186.W_sherpa_221.DAOD_SUSY10.e5340_s2726_r7772_r7676_p2823_tag2.4.24-1-0_output_tree.root    
user.farooque.363106.Z_sherpa_220.DAOD_SUSY10.e4666_s2726_r7725_r7676_p2666_tag2.4.24-1-0_output_tree.root    
user.farooque.363447.W_sherpa_220.DAOD_SUSY10.e4715_s2726_r7725_r7676_p2666_tag2.4.24-1-0_output_tree.root    
user.farooque.410109.singletop_syst.DAOD_SUSY10.e4403_a766_a818_r7676_p2666_tag2.4.24-1-0_output_tree.root    
user.farooque.363105.Z_sherpa_220.DAOD_SUSY10.e4666_s2726_r7725_r7676_p2666_tag2.4.24-1-0_output_tree.root    
user.farooque.363370.Z_sherpa_220.DAOD_SUSY10.e4716_s2726_r7725_r7676_p2666_tag2.4.24-1-0_output_tree.root    
user.farooque.410020.singletop_syst.DAOD_SUSY10.e3978_a766_a818_r7676_p2666_tag2.4.24-1-0_output_tree.root    
user.farooque.363384.Z_sherpa_220.DAOD_SUSY10.e4716_s2726_r7725_r7676_p2666_tag2.4.24-1-0_output_tree.root    
user.farooque.364187.W_sherpa_221.DAOD_SUSY10.e5340_s2726_r7772_r7676_p2823_tag2.4.24-1-0_output_tree.root    
user.farooque.363118.Z_sherpa_220.DAOD_SUSY10.e4666_s2726_r7725_r7676_p2666_tag2.4.24-1-0_output_tree.root    
user.farooque.410011.singletop.DAOD_SUSY10.e3824_s2608_s2183_r7725_r7676_p2719_tag2.4.24-1-0_output_tree.root 
user.farooque.364139.Z_sherpa_221.DAOD_SUSY10.e5313_s2726_r7772_r7676_p2823_tag2.4.24-1-0_output_tree.root    
user.farooque.364173.W_sherpa_221.DAOD_SUSY10.e5340_s2726_r7772_r7676_p2823_tag2.4.24-1-0_output_tree.root    
user.farooque.363434.Z_sherpa_220.DAOD_SUSY10.e4716_s2726_r7772_r7676_p2666_tag2.4.24-1-0_output_tree.root    
user.farooque.364114.Z_sherpa_221.DAOD_SUSY10.e5299_s2726_r7772_r7676_p2823_tag2.4.24-1-0_output_tree.root    
user.farooque.364159.W_sherpa_221.DAOD_SUSY10.e5340_s2726_r7772_r7676_p2823_tag2.4.24-1-0_output_tree.root    
user.farooque.363397.Z_sherpa_220.DAOD_SUSY10.e4716_s2726_r7725_r7676_p2666_tag2.4.24-1-0_output_tree.root    
user.farooque.364128.Z_sherpa_221.DAOD_SUSY10.e5307_s2726_r7772_r7676_p2823_tag2.4.24-1-0_output_tree.root    
user.farooque.363464.W_sherpa_220.DAOD_SUSY10.e4715_s2726_r7725_r7676_p2666_tag2.4.24-1-0_output_tree.root    
user.farooque.364197.W_sherpa_221.DAOD_SUSY10.e5340_s2726_r7772_r7676_p2823_tag2.4.24-1-0_output_tree.root    
user.farooque.410026.singletop.DAOD_SUSY10.e3998_s2608_s2183_r7725_r7676_p2719_tag2.4.24-1-0_output_tree.root 
user.farooque.363341.W_sherpa_220.DAOD_SUSY10.e4779_s2726_r7725_r7676_p2666_tag2.4.24-1-0_output_tree.root    
user.farooque.364143.Z_sherpa_221.DAOD_SUSY10.e5308_s2726_r7772_r7676_p2823_tag2.4.24-1-0_output_tree.root    
user.farooque.363473.W_sherpa_220.DAOD_SUSY10.e4715_s2726_r7725_r7676_p2666_tag2.4.24-1-0_output_tree.root    
user.farooque.364189.W_sherpa_221.DAOD_SUSY10.e5340_s2726_r7772_r7676_p2823_tag2.4.24-1-0_output_tree.root    
user.farooque.363368.Z_sherpa_220.DAOD_SUSY10.e4716_s2726_r7725_r7676_p2666_tag2.4.24-1-0_output_tree.root    
user.farooque.363410.Z_sherpa_220.DAOD_SUSY10.e4716_s2726_r7725_r7676_p2666_tag2.4.24-1-0_output_tree.root    
user.farooque.363476.W_sherpa_220.DAOD_SUSY10.e4715_s2726_r7725_r7676_p2666_tag2.4.24-1-0_output_tree.root    
user.farooque.364164.W_sherpa_221.DAOD_SUSY10.e5340_s2726_r7772_r7676_p2823_tag2.4.24-1-0_output_tree.root    
user.farooque.364154.Z_sherpa_221.DAOD_SUSY10.e5308_s2726_r7772_r7676_p2823_tag2.4.24-1-0_output_tree.root    
user.farooque.363436.W_sherpa_220.DAOD_SUSY10.e4715_s2726_r7725_r7676_p2666_tag2.4.24-1-0_output_tree.root    
user.farooque.363399.Z_sherpa_220.DAOD_SUSY10.e4772_s2726_r7725_r7676_p2666_tag2.4.24-1-0_output_tree.root    
user.farooque.361092.diboson.DAOD_SUSY10.e4607_s2726_r7725_r7676_p2666_tag2.4.24-1-0_output_tree.root         
user.farooque.363332.W_sherpa_220.DAOD_SUSY10.e4709_s2726_r7725_r7676_p2666_tag2.4.24-1-0_output_tree.root    
user.farooque.363335.W_sherpa_220.DAOD_SUSY10.e4709_s2726_r7725_r7676_p2666_tag2.4.24-1-0_output_tree.root    
user.farooque.364167.W_sherpa_221.DAOD_SUSY10.e5340_s2726_r7772_r7676_p2823_tag2.4.24-1-0_output_tree.root    
user.farooque.364157.W_sherpa_221.DAOD_SUSY10.e5340_s2726_r7772_r7676_p2823_tag2.4.24-1-0_output_tree.root    
user.farooque.410013.singletop.DAOD_SUSY10.e3753_s2608_s2183_r7725_r7676_p2719_tag2.4.24-1-0_output_tree.root 
user.farooque.363109.Z_sherpa_220.DAOD_SUSY10.e4792_s2726_r7725_r7676_p2666_tag2.4.24-1-0_output_tree.root    
user.farooque.364144.Z_sherpa_221.DAOD_SUSY10.e5308_s2726_r7772_r7676_p2823_tag2.4.24-1-0_output_tree.root    
user.farooque.364171.W_sherpa_221.DAOD_SUSY10.e5340_s2726_r7772_r7676_p2823_tag2.4.24-1-0_output_tree.root    
user.farooque.364178.W_sherpa_221.DAOD_SUSY10.e5340_s2726_r7772_r7676_p2823_tag2.4.24-1-0_output_tree.root    
user.farooque.364195.W_sherpa_221.DAOD_SUSY10.e5340_s2726_r7772_r7676_p2823_tag2.4.24-1-0_output_tree.root    
user.farooque.363459.W_sherpa_220.DAOD_SUSY10.e4715_s2726_r7725_r7676_p2666_tag2.4.24-1-0_output_tree.root    
user.farooque.364175.W_sherpa_221.DAOD_SUSY10.e5340_s2726_r7772_r7676_p2823_tag2.4.24-1-0_output_tree.root    
user.farooque.363439.W_sherpa_220.DAOD_SUSY10.e4715_s2726_r7725_r7676_p2666_tag2.4.24-1-0_output_tree.root    
user.farooque.363468.W_sherpa_220.DAOD_SUSY10.e4715_s2726_r7725_r7676_p2666_tag2.4.24-1-0_output_tree.root    
user.farooque.363425.Z_sherpa_220.DAOD_SUSY10.e4716_s2726_r7772_r7676_p2666_tag2.4.24-1-0_output_tree.root    
user.farooque.363424.Z_sherpa_220.DAOD_SUSY10.e4716_s2726_r7772_r7676_p2666_tag2.4.24-1-0_output_tree.root    
user.farooque.363373.Z_sherpa_220.DAOD_SUSY10.e4716_s2726_r7725_r7676_p2666_tag2.4.24-1-0_output_tree.root    
user.farooque.410012.singletop.DAOD_SUSY10.e3824_s2608_s2183_r7725_r7676_p2719_tag2.4.24-1-0_output_tree.root 
user.farooque.363351.W_sherpa_220.DAOD_SUSY10.e4779_s2726_r7725_r7676_p2666_tag2.4.24-1-0_output_tree.root    
user.farooque.363375.Z_sherpa_220.DAOD_SUSY10.e4772_s2726_r7725_r7676_p2666_tag2.4.24-1-0_output_tree.root    
user.farooque.363479.W_sherpa_220.DAOD_SUSY10.e4715_s2726_r7725_r7676_p2666_tag2.4.24-1-0_output_tree.root    
user.farooque.363466.W_sherpa_220.DAOD_SUSY10.e4715_s2726_r7725_r7676_p2666_tag2.4.24-1-0_output_tree.root    
user.farooque.364109.Z_sherpa_221.DAOD_SUSY10.e5271_s2726_r7772_r7676_p2823_tag2.4.24-1-0_output_tree.root    
user.farooque.410114.topEW.DAOD_SUSY10.e4632_s2726_r7725_r7676_p2666_tag2.4.24-1-0_output_tree.root           
user.farooque.363471.W_sherpa_220.DAOD_SUSY10.e4715_s2726_r7725_r7676_p2666_tag2.4.24-1-0_output_tree.root    
user.farooque.363469.W_sherpa_220.DAOD_SUSY10.e4715_s2726_r7725_r7676_p2666_tag2.4.24-1-0_output_tree.root    
user.farooque.363420.Z_sherpa_220.DAOD_SUSY10.e4772_s2726_r7772_r7676_p2666_tag2.4.24-1-0_output_tree.root    
user.farooque.363107.Z_sherpa_220.DAOD_SUSY10.e4742_s2726_r7725_r7676_p2666_tag2.4.24-1-0_output_tree.root    
user.farooque.364191.W_sherpa_221.DAOD_SUSY10.e5340_s2726_r7772_r7676_p2823_tag2.4.24-1-0_output_tree.root    
user.farooque.363391.Z_sherpa_220.DAOD_SUSY10.e4716_s2726_r7725_r7676_p2666_tag2.4.24-1-0_output_tree.root    
user.farooque.363404.Z_sherpa_220.DAOD_SUSY10.e4716_s2726_r7725_r7676_p2666_tag2.4.24-1-0_output_tree.root    
user.farooque.363112.Z_sherpa_220.DAOD_SUSY10.e4742_s2726_r7725_r7676_p2666_tag2.4.24-1-0_output_tree.root    
user.farooque.410066.topEW.DAOD_SUSY10.e4111_s2608_s2183_r7725_r7676_p2666_tag2.4.24-1-0_output_tree.root     
user.farooque.363336.W_sherpa_220.DAOD_SUSY10.e4779_s2726_r7725_r7676_p2666_tag2.4.24-1-0_output_tree.root    
user.farooque.410102.singletop_syst.DAOD_SUSY10.e4403_a766_a818_r7676_p2666_tag2.4.24-1-0_output_tree.root    
user.farooque.363387.Z_sherpa_220.DAOD_SUSY10.e4716_s2726_r7725_r7676_p2666_tag2.4.24-1-0_output_tree.root    
user.farooque.364176.W_sherpa_221.DAOD_SUSY10.e5340_s2726_r7772_r7676_p2823_tag2.4.24-1-0_output_tree.root    
user.farooque.363369.Z_sherpa_220.DAOD_SUSY10.e4716_s2726_r7725_r7676_p2666_tag2.4.24-1-0_output_tree.root    
user.farooque.364132.Z_sherpa_221.DAOD_SUSY10.e5307_s2726_r7772_r7676_p2823_tag2.4.24-1-0_output_tree.root    
user.farooque.364127.Z_sherpa_221.DAOD_SUSY10.e5299_s2726_r7772_r7676_p2823_tag2.4.24-1-0_output_tree.root    
user.farooque.363453.W_sherpa_220.DAOD_SUSY10.e4715_s2726_r7725_r7676_p2666_tag2.4.24-1-0_output_tree.root    
user.farooque.363437.W_sherpa_220.DAOD_SUSY10.e4715_s2726_r7725_r7676_p2666_tag2.4.24-1-0_output_tree.root    
user.farooque.364148.Z_sherpa_221.DAOD_SUSY10.e5308_s2726_r7772_r7676_p2823_tag2.4.24-1-0_output_tree.root    
user.farooque.363339.W_sherpa_220.DAOD_SUSY10.e4709_s2726_r7725_r7676_p2666_tag2.4.24-1-0_output_tree.root    
user.farooque.363481.W_sherpa_220.DAOD_SUSY10.e4715_s2726_r7725_r7676_p2666_tag2.4.24-1-0_output_tree.root    
user.farooque.364166.W_sherpa_221.DAOD_SUSY10.e5340_s2726_r7772_r7676_p2823_tag2.4.24-1-0_output_tree.root    
user.farooque.364135.Z_sherpa_221.DAOD_SUSY10.e5307_s2726_r7772_r7676_p2823_tag2.4.24-1-0_output_tree.root    
user.farooque.364126.Z_sherpa_221.DAOD_SUSY10.e5299_s2726_r7772_r7676_p2823_tag2.4.24-1-0_output_tree.root    
user.farooque.364117.Z_sherpa_221.DAOD_SUSY10.e5299_s2726_r7772_r7676_p2823_tag2.4.24-1-0_output_tree.root    
user.farooque.363337.W_sherpa_220.DAOD_SUSY10.e4709_s2726_r7725_r7676_p2666_tag2.4.24-1-0_output_tree.root    
user.farooque.363400.Z_sherpa_220.DAOD_SUSY10.e4716_s2726_r7725_r7676_p2666_tag2.4.24-1-0_output_tree.root    
user.farooque.363433.Z_sherpa_220.DAOD_SUSY10.e4716_s2726_r7772_r7676_p2666_tag2.4.24-1-0_output_tree.root    
user.farooque.363102.Z_sherpa_220.DAOD_SUSY10.e4742_s2726_r7725_r7676_p2666_tag2.4.24-1-0_output_tree.root    
user.farooque.363438.W_sherpa_220.DAOD_SUSY10.e4715_s2726_r7725_r7676_p2666_tag2.4.24-1-0_output_tree.root    
user.farooque.364149.Z_sherpa_221.DAOD_SUSY10.e5308_s2726_r7772_r7676_p2823_tag2.4.24-1-0_output_tree.root    
user.farooque.410115.topEW.DAOD_SUSY10.e4632_s2726_r7725_r7676_p2666_tag2.4.24-1-0_output_tree.root           
user.farooque.363362.Z_sherpa_220.DAOD_SUSY10.e4689_s2726_r7725_r7676_p2666_tag2.4.24-1-0_output_tree.root    
user.farooque.363374.Z_sherpa_220.DAOD_SUSY10.e4716_s2726_r7725_r7676_p2666_tag2.4.24-1-0_output_tree.root    
user.farooque.363343.W_sherpa_220.DAOD_SUSY10.e4709_s2726_r7725_r7676_p2666_tag2.4.24-1-0_output_tree.root    
user.farooque.363414.Z_sherpa_220.DAOD_SUSY10.e4716_s2726_r7772_r7676_p2666_tag2.4.24-1-0_output_tree.root    
user.farooque.410113.topEW.DAOD_SUSY10.e4632_s2726_r7725_r7676_p2666_tag2.4.24-1-0_output_tree.root           
user.farooque.364123.Z_sherpa_221.DAOD_SUSY10.e5299_s2726_r7772_r7676_p2823_tag2.4.24-1-0_output_tree.root    
user.farooque.410080.topEW.DAOD_SUSY10.e4111_s2608_s2183_r7725_r7676_p2666_tag2.4.24-1-0_output_tree.root     
user.farooque.364146.Z_sherpa_221.DAOD_SUSY10.e5308_s2726_r7772_r7676_p2823_tag2.4.24-1-0_output_tree.root    
user.farooque.363474.W_sherpa_220.DAOD_SUSY10.e4771_s2726_r7725_r7676_p2666_tag2.4.24-1-0_output_tree.root    
user.farooque.363448.W_sherpa_220.DAOD_SUSY10.e4715_s2726_r7725_r7676_p2666_tag2.4.24-1-0_output_tree.root    
user.farooque.363342.W_sherpa_220.DAOD_SUSY10.e4779_s2726_r7725_r7676_p2666_tag2.4.24-1-0_output_tree.root    
user.farooque.364140.Z_sherpa_221.DAOD_SUSY10.e5307_s2726_r7772_r7676_p2823_tag2.4.24-1-0_output_tree.root    
user.farooque.363121.Z_sherpa_220.DAOD_SUSY10.e4690_s2726_r7725_r7676_p2666_tag2.4.24-1-0_output_tree.root    
user.farooque.363348.W_sherpa_220.DAOD_SUSY10.e4779_s2726_r7725_r7676_p2666_tag2.4.24-1-0_output_tree.root    
user.farooque.364138.Z_sherpa_221.DAOD_SUSY10.e5313_s2726_r7772_r7676_p2823_tag2.4.24-1-0_output_tree.root    
user.farooque.363346.W_sherpa_220.DAOD_SUSY10.e4709_s2726_r7725_r7676_p2666_tag2.4.24-1-0_output_tree.root    
user.farooque.363431.Z_sherpa_220.DAOD_SUSY10.e4716_s2726_r7772_r7676_p2666_tag2.4.24-1-0_output_tree.root    
user.dyamaguc.302469.VLQ.DAOD_TOPQ1.e4112_s2608_r7772_r7676_p2669_2.4.24-1-0_output_tree.root          
user.dyamaguc.344068.HBSM.DAOD_TOPQ1.e5075_a766_a821_r7676_p2669_2.4.24-1-0_output_tree.root           
user.dyamaguc.302474.VLQ.DAOD_TOPQ1.e4112_s2608_r7772_r7676_p2669_2.4.24-1-0_output_tree.root          
user.dyamaguc.302475.VLQ.DAOD_TOPQ1.e4112_s2608_r7772_r7676_p2669_2.4.24-1-0_output_tree.root          
user.dyamaguc.302473.VLQ.DAOD_TOPQ1.e4112_s2608_r7772_r7676_p2669_2.4.24-1-0_output_tree.root          
user.dyamaguc.344078.HBSM.DAOD_TOPQ1.e5052_a766_a821_r7676_p2669_2.4.24-1-0_output_tree.root           
user.dyamaguc.302477.VLQ.DAOD_TOPQ1.e4112_s2608_r7772_r7676_p2669_2.4.24-1-0_output_tree.root          
user.dyamaguc.344069.HBSM.DAOD_TOPQ1.e5075_a766_a821_r7676_p2669_2.4.24-1-0_output_tree.root           
user.dyamaguc.344080.HBSM.DAOD_TOPQ1.e5052_a766_a821_r7676_p2669_2.4.24-1-0_output_tree.root           
user.dyamaguc.302059.UEDRPP.DAOD_TOPQ1.e4017_s2608_s2183_r7772_r7676_p2669_2.4.24-1-0_output_tree.root 
user.dyamaguc.302479.VLQ.DAOD_TOPQ1.e4112_s2608_r7772_r7676_p2669_2.4.24-1-0_output_tree.root          
user.dyamaguc.302777.VLQ.DAOD_TOPQ1.e4476_s2726_r7725_r7676_p2669_2.4.24-1-0_output_tree.root          
user.dyamaguc.302481.VLQ.DAOD_TOPQ1.e4112_s2608_r7772_r7676_p2669_2.4.24-1-0_output_tree.root          
user.dyamaguc.344075.HBSM.DAOD_TOPQ1.e5052_a766_a821_r7676_p2669_2.4.24-1-0_output_tree.root           
user.dyamaguc.344081.HBSM.DAOD_TOPQ1.e5052_a766_a821_r7676_p2669_2.4.24-1-0_output_tree.root           
user.dyamaguc.344066.HBSM.DAOD_TOPQ1.e5075_a766_a821_r7676_p2669_2.4.24-1-0_output_tree.root           
user.dyamaguc.302482.VLQ.DAOD_TOPQ1.e4112_s2608_r7772_r7676_p2669_2.4.24-1-0_output_tree.root          
user.dyamaguc.344074.HBSM.DAOD_TOPQ1.e5052_a766_a821_r7676_p2669_2.4.24-1-0_output_tree.root           
user.dyamaguc.344077.HBSM.DAOD_TOPQ1.e5052_a766_a821_r7676_p2669_2.4.24-1-0_output_tree.root           
user.dyamaguc.302472.VLQ.DAOD_TOPQ1.e4112_s2608_r7772_r7676_p2669_2.4.24-1-0_output_tree.root          
user.dyamaguc.302470.VLQ.DAOD_TOPQ1.e4112_s2608_r7772_r7676_p2669_2.4.24-1-0_output_tree.root          
user.dyamaguc.302484.VLQ.DAOD_TOPQ1.e4112_s2608_r7772_r7676_p2669_2.4.24-1-0_output_tree.root          
user.dyamaguc.302485.VLQ.DAOD_TOPQ1.e4112_s2608_r7772_r7676_p2669_2.4.24-1-0_output_tree.root          
user.dyamaguc.302478.VLQ.DAOD_TOPQ1.e4112_s2608_r7772_r7676_p2669_2.4.24-1-0_output_tree.root          
user.dyamaguc.302468.VLQ.DAOD_TOPQ1.e4112_s2608_r7772_r7676_p2669_2.4.24-1-0_output_tree.root          
user.dyamaguc.344067.HBSM.DAOD_TOPQ1.e5075_a766_a821_r7676_p2669_2.4.24-1-0_output_tree.root           
user.dyamaguc.344079.HBSM.DAOD_TOPQ1.e5052_a766_a821_r7676_p2669_2.4.24-1-0_output_tree.root           
user.dyamaguc.344076.HBSM.DAOD_TOPQ1.e5052_a766_a821_r7676_p2669_2.4.24-1-0_output_tree.root           
user.dyamaguc.344071.HBSM.DAOD_TOPQ1.e5075_a766_a821_r7676_p2669_2.4.24-1-0_output_tree.root           
user.dyamaguc.302471.VLQ.DAOD_TOPQ1.e4112_s2608_r7772_r7676_p2669_2.4.24-1-0_output_tree.root          
user.dyamaguc.344072.HBSM.DAOD_TOPQ1.e5075_a766_a821_r7676_p2669_2.4.24-1-0_output_tree.root           
user.dyamaguc.302058.UEDRPP.DAOD_TOPQ1.e4017_s2608_s2183_r7772_r7676_p2669_2.4.24-1-0_output_tree.root 
user.dyamaguc.302057.UEDRPP.DAOD_TOPQ1.e4017_s2608_s2183_r7772_r7676_p2669_2.4.24-1-0_output_tree.root 
user.dyamaguc.344073.HBSM.DAOD_TOPQ1.e5075_a766_a821_r7676_p2669_2.4.24-1-0_output_tree.root           
user.dyamaguc.302480.VLQ.DAOD_TOPQ1.e4112_s2608_r7772_r7676_p2669_2.4.24-1-0_output_tree.root          
user.dyamaguc.302483.VLQ.DAOD_TOPQ1.e4112_s2608_r7772_r7676_p2669_2.4.24-1-0_output_tree.root          
user.dyamaguc.302055.UEDRPP.DAOD_TOPQ1.e4017_s2608_s2183_r7772_r7676_p2669_2.4.24-1-0_output_tree.root 
user.dyamaguc.344070.HBSM.DAOD_TOPQ1.e5075_a766_a821_r7676_p2669_2.4.24-1-0_output_tree.root           
user.dyamaguc.302056.UEDRPP.DAOD_TOPQ1.e4017_s2608_s2183_r7772_r7676_p2669_2.4.24-1-0_output_tree.root 
user.dyamaguc.302476.VLQ.DAOD_TOPQ1.e4112_s2608_r7772_r7676_p2669_2.4.24-1-0_output_tree.root          
user.juste.361097.diboson.DAOD_TOPQ1.e4607_s2726_r7772_r7676_p2669_2.4.24-1-0_output_tree.root         
user.juste.410004.ttbar.DAOD_TOPQ1.e3836_s2726_r7772_r7676_p2722_2.4.24-1-0_output_tree.root           
user.juste.407201.ttbar.DAOD_TOPQ1.e5146_s2726_r7772_r7676_p2826_2.4.24-1-0_output_tree.root           
user.juste.410011.singletop.DAOD_TOPQ1.e3824_s2608_s2183_r7725_r7676_p2669_2.4.24-1-0_output_tree.root 
user.juste.410075.topEW.DAOD_TOPQ1.e4631_s2726_r7725_r7676_p2669_2.4.24-1-0_output_tree.root           
user.juste.341551.Hplus.DAOD_TOPQ1.e4336_a766_a821_r7676_p2669_2.4.24-1-0_output_tree.root             
user.juste.410012.singletop.DAOD_TOPQ1.e3824_s2608_s2183_r7725_r7676_p2669_2.4.24-1-0_output_tree.root 
user.juste.341541.Hplus.DAOD_TOPQ1.e4336_a766_a821_r7676_p2669_2.4.24-1-0_output_tree.root             
user.juste.341549.Hplus.DAOD_TOPQ1.e4336_a766_a821_r7676_p2669_2.4.24-1-0_output_tree.root             
user.juste.410080.topEW.DAOD_TOPQ1.e4111_s2608_s2183_r7725_r7676_p2669_2.4.24-1-0_output_tree.root     
user.juste.361092.diboson.DAOD_TOPQ1.e4607_s2726_r7725_r7676_p2669_2.4.24-1-0_output_tree.root         
user.juste.341548.Hplus.DAOD_TOPQ1.e4336_a766_a821_r7676_p2669_2.4.24-1-0_output_tree.root             
user.juste.410111.topEW.DAOD_TOPQ1.e4632_s2726_r7725_r7676_p2669_2.4.24-1-0_output_tree.root           
user.juste.407202.ttbar.DAOD_TOPQ1.e5146_s2726_r7772_r7676_p2826_2.4.24-1-0_output_tree.root           
user.juste.341556.Hplus.DAOD_TOPQ1.e4336_a766_a821_r7676_p2669_2.4.24-1-0_output_tree.root             
user.juste.410014.singletop.DAOD_TOPQ1.e3753_s2608_s2183_r7725_r7676_p2669_2.4.24-1-0_output_tree.root 
user.juste.410016.singletop.DAOD_TOPQ1.e3753_s2608_s2183_r7725_r7676_p2669_2.4.24-1-0_output_tree.root 
user.juste.341543.Hplus.DAOD_TOPQ1.e4336_a766_a821_r7676_p2669_2.4.24-1-0_output_tree.root             
user.juste.410120.ttbar.DAOD_TOPQ1.e4373_s2608_r7725_r7676_p2669_2.4.24-1-0_output_tree.root           
user.juste.410013.singletop.DAOD_TOPQ1.e3753_s2608_s2183_r7725_r7676_p2669_2.4.24-1-0_output_tree.root 
user.juste.410025.singletop.DAOD_TOPQ1.e3998_s2608_s2183_r7725_r7676_p2669_2.4.24-1-0_output_tree.root 
user.juste.410188.ttbar.DAOD_TOPQ1.e4714_s2726_r7725_r7676_p2711_2.4.24-1-0_output_tree.root           
user.juste.407203.ttbar.DAOD_TOPQ1.e5146_s2726_r7772_r7676_p2826_2.4.24-1-0_output_tree.root           
user.juste.361096.diboson.DAOD_TOPQ1.e4607_s2726_r7725_r7676_p2669_2.4.24-1-0_output_tree.root         
user.juste.341557.Hplus.DAOD_TOPQ1.e4336_a766_a821_r7676_p2669_2.4.24-1-0_output_tree.root             
user.juste.410002.ttbar.DAOD_TOPQ1.e3783_s2608_r7725_r7676_p2669_2.4.24-1-0_output_tree.root           
user.juste.410115.topEW.DAOD_TOPQ1.e4632_s2726_r7725_r7676_p2669_2.4.24-1-0_output_tree.root           
user.juste.343365.topEW.DAOD_TOPQ1.e4706_s2726_r7772_r7676_p2669_2.4.24-1-0_output_tree.root           
user.juste.410116.topEW.DAOD_TOPQ1.e4632_s2726_r7725_r7676_p2669_2.4.24-1-0_output_tree.root           
user.juste.410073.topEW.DAOD_TOPQ1.e4631_s2726_r7725_r7676_p2669_2.4.24-1-0_output_tree.root           
user.juste.341547.Hplus.DAOD_TOPQ1.e4336_a766_a821_r7676_p2669_2.4.24-1-0_output_tree.root             
user.juste.361093.diboson.DAOD_TOPQ1.e4607_s2726_r7725_r7676_p2669_2.4.24-1-0_output_tree.root         
user.juste.410189.ttbar.DAOD_TOPQ1.e4714_s2726_r7725_r7676_p2711_2.4.24-1-0_output_tree.root           
user.juste.341555.Hplus.DAOD_TOPQ1.e4336_a766_a821_r7676_p2669_2.4.24-1-0_output_tree.root             
user.juste.407204.ttbar.DAOD_TOPQ1.e5146_s2726_r7772_r7676_p2826_2.4.24-1-0_output_tree.root           
user.juste.410066.topEW.DAOD_TOPQ1.e4111_s2608_s2183_r7725_r7676_p2669_2.4.24-1-0_output_tree.root     
user.juste.343367.topEW.DAOD_TOPQ1.e4706_s2726_r7772_r7676_p2669_2.4.24-1-0_output_tree.root           
user.juste.410112.topEW.DAOD_TOPQ1.e4632_s2726_r7725_r7676_p2669_2.4.24-1-0_output_tree.root           
user.juste.410068.topEW.DAOD_TOPQ1.e4111_s2608_s2183_r7725_r7676_p2669_2.4.24-1-0_output_tree.root     
user.juste.341546.Hplus.DAOD_TOPQ1.e4336_a766_a821_r7676_p2669_2.4.24-1-0_output_tree.root             
user.juste.410003.ttbar.DAOD_TOPQ1.e4441_s2726_r7772_r7676_p2669_2.4.24-1-0_output_tree.root           
user.juste.361094.diboson.DAOD_TOPQ1.e4607_s2726_r7725_r7676_p2669_2.4.24-1-0_output_tree.root         
user.juste.410113.topEW.DAOD_TOPQ1.e4632_s2726_r7725_r7676_p2669_2.4.24-1-0_output_tree.root           
user.juste.410114.topEW.DAOD_TOPQ1.e4632_s2726_r7725_r7676_p2669_2.4.24-1-0_output_tree.root           
user.juste.410067.topEW.DAOD_TOPQ1.e4111_s2608_s2183_r7725_r7676_p2669_2.4.24-1-0_output_tree.root     
user.juste.410026.singletop.DAOD_TOPQ1.e3998_s2608_s2183_r7725_r7676_p2669_2.4.24-1-0_output_tree.root 
user.juste.410187.ttbar.DAOD_TOPQ1.e4714_s2726_r7725_r7676_p2711_2.4.24-1-0_output_tree.root           
user.juste.410081.topEW.DAOD_TOPQ1.e4111_s2608_s2183_r7725_r7676_p2669_2.4.24-1-0_output_tree.root     
user.juste.410074.topEW.DAOD_TOPQ1.e4631_s2726_r7725_r7676_p2669_2.4.24-1-0_output_tree.root           
user.juste.343366.topEW.DAOD_TOPQ1.e4706_s2726_r7772_r7676_p2669_2.4.24-1-0_output_tree.root           
user.juste.410001.ttbar.DAOD_TOPQ1.e3783_s2608_r7725_r7676_p2669_2.4.24-1-0_output_tree.root           
user.juste.410015.singletop.DAOD_TOPQ1.e3753_s2608_s2183_r7725_r7676_p2669_2.4.24-1-0_output_tree.root 
user.juste.361091.diboson.DAOD_TOPQ1.e4607_s2726_r7725_r7676_p2669_2.4.24-1-0_output_tree.root         
user.juste.407009.ttbar.DAOD_TOPQ1.e4023_s2608_r7725_r7676_p2669_2.4.24-1-0_output_tree.root           
user.juste.407010.ttbar.DAOD_TOPQ1.e4023_s2608_r7725_r7676_p2669_2.4.24-1-0_output_tree.root           
user.juste.341552.Hplus.DAOD_TOPQ1.e4336_a766_a821_r7676_p2669_2.4.24-1-0_output_tree.root             
user.juste.341554.Hplus.DAOD_TOPQ1.e4336_a766_a821_r7676_p2669_2.4.24-1-0_output_tree.root             
user.juste.341550.Hplus.DAOD_TOPQ1.e4336_a766_a821_r7676_p2669_2.4.24-1-0_output_tree.root             
user.juste.361095.diboson.DAOD_TOPQ1.e4607_s2726_r7772_r7676_p2669_2.4.24-1-0_output_tree.root         
user.juste.341558.Hplus.DAOD_TOPQ1.e4336_a766_a821_r7676_p2669_2.4.24-1-0_output_tree.root             
user.juste.407011.ttbar.DAOD_TOPQ1.e4023_s2608_r7725_r7676_p2669_2.4.24-1-0_output_tree.root           
user.juste.410501.ttbar.DAOD_TOPQ1.e5458_s2726_r7772_r7676_p2877_2.4.24-1-0_output_tree.root           
user.juste.410000.ttbar.DAOD_TOPQ1.e3698_s2608_s2183_r7725_r7676_p2669_2.4.24-1-0_output_tree.root     
user.juste.341545.Hplus.DAOD_TOPQ1.e4336_a766_a821_r7676_p2669_2.4.24-1-0_output_tree.root             
user.juste.341553.Hplus.DAOD_TOPQ1.e4336_a766_a821_r7676_p2669_2.4.24-1-0_output_tree.root             
user.juste.407200.ttbar.DAOD_TOPQ1.e5146_s2726_r7772_r7676_p2826_2.4.24-1-0_output_tree.root           
user.juste.410186.ttbar.DAOD_TOPQ1.e4714_s2726_r7725_r7676_p2711_2.4.24-1-0_output_tree.root           
user.juste.407012.ttbar.DAOD_TOPQ1.e4023_s2608_r7725_r7676_p2669_2.4.24-1-0_output_tree.root           
user.orlando.344897.HBSM.DAOD_TOPQ1.e5612_a766_a821_r7676_p2669_2.4.24-1-0_output_tree.root 
user.orlando.344904.HBSM.DAOD_TOPQ1.e5612_a766_a821_r7676_p2669_2.4.24-1-0_output_tree.root 
user.orlando.344898.HBSM.DAOD_TOPQ1.e5612_a766_a821_r7676_p2669_2.4.24-1-0_output_tree.root 
user.orlando.344900.HBSM.DAOD_TOPQ1.e5612_a766_a821_r7676_p2669_2.4.24-1-0_output_tree.root 
user.orlando.344903.HBSM.DAOD_TOPQ1.e5612_a766_a821_r7676_p2669_2.4.24-1-0_output_tree.root 
user.orlando.344902.HBSM.DAOD_TOPQ1.e5612_a766_a821_r7676_p2669_2.4.24-1-0_output_tree.root 
user.orlando.344896.HBSM.DAOD_TOPQ1.e5612_a766_a821_r7676_p2669_2.4.24-1-0_output_tree.root 
user.gerbaudo.410697.FCNC.AOD.e5575_a766_a821_r7676_2.4.24-1-0_output_tree.root 
user.gerbaudo.410698.FCNC.AOD.e5575_a766_a821_r7676_2.4.24-1-0_output_tree.root 
user.gerbaudo.410699.FCNC.AOD.e5575_a766_a821_r7676_2.4.24-1-0_output_tree.root 
user.gerbaudo.410696.FCNC.AOD.e5575_a766_a821_r7676_2.4.24-1-0_output_tree.root 
