60.0 4.6529650e-05
70.0 4.0932369e-05
80.0 3.5523985e-05
90.0 3.0049072e-05
100.0 2.4706307e-05
110.0 1.9578345e-05
120.0 1.4768112e-05
130.0 1.0395082e-05
140.0 6.5929957e-06
150.0 3.5083736e-06
160.0 1.2994737e-06
