60.0 9.6851966e-02
70.0 8.6977362e-02
80.0 7.7041765e-02
90.0 6.6466905e-02
100.0 5.5713313e-02
110.0 4.4981006e-02
120.0 3.4536520e-02
130.0 2.4712363e-02
140.0 1.5905003e-02
150.0 8.5688535e-03
160.0 3.2040272e-03
