60.0 5.5775715e-04
70.0 4.8157107e-04
80.0 4.1287435e-04
90.0 3.4481242e-04
100.0 2.8043257e-04
110.0 2.2013224e-04
120.0 1.6465883e-04
130.0 1.1502165e-04
140.0 7.2436452e-05
150.0 3.8285805e-05
160.0 1.4086523e-05
