60.0 1.0682371e-01
70.0 9.9936695e-02
80.0 9.2435382e-02
90.0 8.3830021e-02
100.0 7.4197964e-02
110.0 6.3505750e-02
120.0 5.1835707e-02
130.0 3.9464812e-02
140.0 2.6969762e-02
150.0 1.5332923e-02
160.0 5.9810121e-03
