60.0 1.7203752e-02
70.0 1.5125180e-02
80.0 1.3146764e-02
90.0 1.1123337e-02
100.0 9.1499988e-03
110.0 7.2552972e-03
120.0 5.4762309e-03
130.0 3.8568054e-03
140.0 2.4470560e-03
150.0 1.3022603e-03
160.0 4.8218028e-04
