60.0 1.9630327e-05
70.0 1.6974591e-05
80.0 1.4559137e-05
90.0 1.2165805e-05
100.0 9.8970457e-06
110.0 7.7696722e-06
120.0 5.8117885e-06
130.0 4.0598853e-06
140.0 2.5570781e-06
150.0 1.3519494e-06
160.0 4.9772113e-07
