60.0 2.3622544e-05
70.0 2.1788846e-05
80.0 1.9942372e-05
90.0 1.7902086e-05
100.0 1.5703790e-05
110.0 1.3333929e-05
120.0 1.0805557e-05
130.0 8.1730188e-06
140.0 5.5519464e-06
150.0 3.1391078e-06
160.0 1.2183615e-06
