60.0 1.9743294e-03
70.0 1.7181431e-03
80.0 1.4849981e-03
90.0 1.2506177e-03
100.0 1.0257140e-03
110.0 8.1186305e-04
120.0 6.1211900e-04
130.0 4.3074668e-04
140.0 2.7302677e-04
150.0 1.4506641e-04
160.0 5.3572176e-05
