60.0 2.5236041e-01
70.0 2.1935597e-01
80.0 1.8901713e-01
90.0 1.5867981e-01
100.0 1.2966012e-01
110.0 1.0221672e-01
120.0 7.6758846e-02
130.0 5.3812989e-02
140.0 3.4001249e-02
150.0 1.8024929e-02
160.0 6.6497186e-03
