60.0 1.1022908e-01
70.0 1.0257695e-01
80.0 9.4633198e-02
90.0 8.5642690e-02
100.0 7.5737531e-02
110.0 6.4839650e-02
120.0 5.2988083e-02
130.0 4.0420307e-02
140.0 2.7687107e-02
150.0 1.5775339e-02
160.0 6.1617752e-03
