60.0 2.4338199e-03
70.0 2.1346202e-03
80.0 1.8570340e-03
90.0 1.5748988e-03
100.0 1.3003817e-03
110.0 1.0359246e-03
120.0 7.8586981e-04
130.0 5.5621602e-04
140.0 3.5442676e-04
150.0 1.8920148e-04
160.0 7.0146222e-05
