60.0 2.9354098e-06
70.0 2.5957485e-06
80.0 2.2635163e-06
90.0 1.9243512e-06
100.0 1.5900693e-06
110.0 1.2661312e-06
120.0 9.5945955e-07
130.0 6.7824826e-07
140.0 4.3182753e-07
150.0 2.3054105e-07
160.0 8.5606534e-08
