60.0 4.2064826e-03
70.0 3.6960959e-03
80.0 3.2120977e-03
90.0 2.7208209e-03
100.0 2.2418363e-03
110.0 1.7811419e-03
120.0 1.3472638e-03
130.0 9.5086535e-04
140.0 6.0446706e-04
150.0 3.2218294e-04
160.0 1.1941176e-04
