60.0 1.1916841e-07
70.0 1.0476669e-07
80.0 9.0881064e-08
90.0 7.6840638e-08
100.0 6.3154184e-08
110.0 5.0029376e-08
120.0 3.7726389e-08
130.0 2.6548051e-08
140.0 1.6833831e-08
150.0 8.9559310e-09
160.0 3.3165383e-09
