60.0 3.7012305e-04
70.0 3.4157993e-04
80.0 3.1275536e-04
90.0 2.8086534e-04
100.0 2.4645793e-04
110.0 2.0932569e-04
120.0 1.6967717e-04
130.0 1.2836869e-04
140.0 8.7219313e-05
150.0 4.9323779e-05
160.0 1.9147063e-05
