60.0 7.6239061e-04
70.0 6.7223793e-04
80.0 5.8519197e-04
90.0 4.9661294e-04
100.0 4.0974437e-04
110.0 3.2587081e-04
120.0 2.4668339e-04
130.0 1.7422081e-04
140.0 1.1082796e-04
150.0 5.9118648e-05
160.0 2.1933655e-05
