60.0 1.2193591e-02
70.0 1.0853043e-02
80.0 9.5145268e-03
90.0 8.1282013e-03
100.0 6.7452621e-03
110.0 5.3919249e-03
120.0 4.1002678e-03
130.0 2.9077072e-03
140.0 1.8565875e-03
150.0 9.9372986e-04
160.0 3.6984094e-04
