60.0 4.0219204e-03
70.0 3.7120133e-03
80.0 3.4001669e-03
90.0 3.0550725e-03
100.0 2.6827626e-03
110.0 2.2806587e-03
120.0 1.8506804e-03
130.0 1.4018111e-03
140.0 9.5363498e-04
150.0 5.3991428e-04
160.0 2.0977266e-04
