60.0 8.9096223e-03
70.0 8.2264236e-03
80.0 7.5375757e-03
90.0 6.7744746e-03
100.0 5.9503466e-03
110.0 5.0595652e-03
120.0 4.1064522e-03
130.0 3.1109912e-03
140.0 2.1166954e-03
150.0 1.1985661e-03
160.0 4.6573838e-04
